﻿Log file open, 09/19/21 01:25:05
LogInit: LLM is enabled
LogInit: LLM CsvWriter: off TraceWriter: off
LogInit: Display: Running engine for game: sbHomework_20_5
LogPlatformFile: Not using cached read wrapper
LogTaskGraph: Started task graph with 5 named threads and 35 total threads with 3 sets of task threads.
LogStats: Stats thread started at 0.191554
LogD3D11RHI: Loaded GFSDK_Aftermath_Lib.x64.dll
LogICUInternationalization: ICU TimeZone Detection - Raw Offset: +3:00, Platform Override: ''
LogPluginManager: Mounting plugin MeshPainting
LogPluginManager: Mounting plugin XGEController
LogPluginManager: Mounting plugin Paper2D
LogPluginManager: Mounting plugin AISupport
LogPluginManager: Mounting plugin EnvironmentQueryEditor
LogPluginManager: Mounting plugin LightPropagationVolume
LogPluginManager: Mounting plugin CameraShakePreviewer
LogPluginManager: Mounting plugin AssetManagerEditor
LogPluginManager: Mounting plugin CryptoKeys
LogPluginManager: Mounting plugin CurveEditorTools
LogPluginManager: Mounting plugin DataValidation
LogPluginManager: Mounting plugin FacialAnimation
LogPluginManager: Mounting plugin GameplayTagsEditor
LogPluginManager: Mounting plugin GeometryMode
LogPluginManager: Mounting plugin MacGraphicsSwitching
LogPluginManager: Mounting plugin MobileLauncherProfileWizard
LogPluginManager: Mounting plugin PluginBrowser
LogPluginManager: Mounting plugin SpeedTreeImporter
LogPluginManager: Mounting plugin AnimationSharing
LogPluginManager: Mounting plugin CLionSourceCodeAccess
LogPluginManager: Mounting plugin GitSourceControl
LogPluginManager: Mounting plugin CodeLiteSourceCodeAccess
LogPluginManager: Mounting plugin NullSourceCodeAccess
LogPluginManager: Mounting plugin KDevelopSourceCodeAccess
LogPluginManager: Mounting plugin PerforceSourceControl
LogPluginManager: Mounting plugin PluginUtils
LogPluginManager: Mounting plugin PlasticSourceControl
LogPluginManager: Mounting plugin PropertyAccessNode
LogPluginManager: Mounting plugin MaterialAnalyzer
LogPluginManager: Mounting plugin RiderSourceCodeAccess
LogPluginManager: Mounting plugin RiderLink
LogPluginManager: Mounting plugin SubversionSourceControl
LogPluginManager: Mounting plugin UObjectPlugin
LogPluginManager: Mounting plugin VisualStudioCodeSourceCodeAccess
LogPluginManager: Mounting plugin VisualStudioSourceCodeAccess
LogPluginManager: Mounting plugin XCodeSourceCodeAccess
LogPluginManager: Mounting plugin AlembicImporter
LogPluginManager: Mounting plugin AutomationUtils
LogPluginManager: Mounting plugin BackChannel
LogPluginManager: Mounting plugin ChaosCloth
LogPluginManager: Mounting plugin ChaosClothEditor
LogPluginManager: Mounting plugin ChaosEditor
LogPluginManager: Mounting plugin ChaosNiagara
LogPluginManager: Mounting plugin ChaosSolverPlugin
LogPluginManager: Mounting plugin CharacterAI
LogPluginManager: Mounting plugin GeometryCache
LogPluginManager: Mounting plugin GeometryCollectionPlugin
LogPluginManager: Mounting plugin GeometryProcessing
LogPluginManager: Mounting plugin Niagara
LogPluginManager: Mounting plugin MotoSynth
LogPluginManager: Mounting plugin PlanarCut
LogPluginManager: Mounting plugin PlatformCrypto
LogPluginManager: Mounting plugin SkeletalReduction
LogPluginManager: Mounting plugin DatasmithContent
LogPluginManager: Mounting plugin VariantManagerContent
LogPluginManager: Mounting plugin LuminPlatformFeatures
LogPluginManager: Mounting plugin MagicLeap
LogPluginManager: Mounting plugin MagicLeapLightEstimation
LogPluginManager: Mounting plugin MagicLeapMedia
LogPluginManager: Mounting plugin MagicLeapPassableWorld
LogPluginManager: Mounting plugin ProxyLODPlugin
LogPluginManager: Mounting plugin MLSDK
LogPluginManager: Mounting plugin AndroidMedia
LogPluginManager: Mounting plugin AvfMedia
LogPluginManager: Mounting plugin ImgMedia
LogPluginManager: Mounting plugin MediaCompositing
LogPluginManager: Mounting plugin MediaPlayerEditor
LogPluginManager: Mounting plugin WmfMedia
LogPluginManager: Mounting plugin WebMMedia
LogPluginManager: Mounting plugin UdpMessaging
LogPluginManager: Mounting plugin TcpMessaging
LogPluginManager: Mounting plugin LauncherChunkInstaller
LogPluginManager: Mounting plugin ActorSequence
LogPluginManager: Mounting plugin OnlineSubsystemNull
LogPluginManager: Mounting plugin OnlineSubsystem
LogPluginManager: Mounting plugin LevelSequenceEditor
LogPluginManager: Mounting plugin MatineeToLevelSequence
LogPluginManager: Mounting plugin TemplateSequence
LogPluginManager: Mounting plugin OnlineSubsystemUtils
LogPluginManager: Mounting plugin ActorLayerUtilities
LogPluginManager: Mounting plugin AndroidDeviceProfileSelector
LogPluginManager: Mounting plugin AndroidMoviePlayer
LogPluginManager: Mounting plugin AndroidPermission
LogPluginManager: Mounting plugin AppleMoviePlayer
LogPluginManager: Mounting plugin AppleImageUtils
LogPluginManager: Mounting plugin ArchVisCharacter
LogPluginManager: Mounting plugin AudioCapture
LogPluginManager: Mounting plugin AssetTags
LogPluginManager: Mounting plugin ScreenshotTools
LogPluginManager: Mounting plugin AudioSynesthesia
LogPluginManager: Mounting plugin CableComponent
LogPluginManager: Mounting plugin ChunkDownloader
LogPluginManager: Mounting plugin CustomMeshComponent
LogPluginManager: Mounting plugin EditableMesh
LogPluginManager: Mounting plugin GoogleCloudMessaging
LogPluginManager: Mounting plugin GooglePAD
LogPluginManager: Mounting plugin ExampleDeviceProfileSelector
LogPluginManager: Mounting plugin IOSDeviceProfileSelector
LogPluginManager: Mounting plugin LinuxDeviceProfileSelector
LogPluginManager: Mounting plugin LocationServicesBPLibrary
LogPluginManager: Mounting plugin MobilePatchingUtils
LogPluginManager: Mounting plugin PhysXVehicles
LogPluginManager: Mounting plugin PostSplashScreen
LogPluginManager: Mounting plugin PropertyAccessEditor
LogPluginManager: Mounting plugin ProceduralMeshComponent
LogPluginManager: Mounting plugin SignificanceManager
LogPluginManager: Mounting plugin RuntimePhysXCooking
LogPluginManager: Mounting plugin SoundFields
LogPluginManager: Mounting plugin Synthesis
LogPluginManager: Mounting plugin WebMMoviePlayer
LogPluginManager: Mounting plugin WindowsMoviePlayer
LogPluginManager: Mounting plugin ContentBrowserAssetDataSource
LogPluginManager: Mounting plugin ContentBrowserClassDataSource
LogPluginManager: Mounting plugin OnlineSubsystemGooglePlay
LogPluginManager: Mounting plugin OnlineSubsystemIOS
LogPluginManager: Mounting plugin OculusVR
LogPluginManager: Mounting plugin SteamVR
LogXGEController: Cleaning working directory: C:/Users/Admin/AppData/Local/Temp/UnrealXGEWorkingDir/
LogXGEController: Cannot use XGE Controller as Incredibuild is not installed on this machine.
LogInit: Using libcurl 7.55.1-DEV
LogInit:  - built for x86_64-pc-win32
LogInit:  - supports SSL with OpenSSL/1.1.1
LogInit:  - supports HTTP deflate (compression) using libz 1.2.8
LogInit:  - other features:
LogInit:      CURL_VERSION_SSL
LogInit:      CURL_VERSION_LIBZ
LogInit:      CURL_VERSION_IPV6
LogInit:      CURL_VERSION_ASYNCHDNS
LogInit:      CURL_VERSION_LARGEFILE
LogInit:      CURL_VERSION_IDN
LogInit:  CurlRequestOptions (configurable via config and command line):
LogInit:  - bVerifyPeer = true  - Libcurl will verify peer certificate
LogInit:  - bUseHttpProxy = false  - Libcurl will NOT use HTTP proxy
LogInit:  - bDontReuseConnections = false  - Libcurl will reuse connections
LogInit:  - MaxHostConnections = 16  - Libcurl will limit the number of connections to a host
LogInit:  - LocalHostAddr = Default
LogInit:  - BufferSize = 65536
LogOnline: OSS: Creating online subsystem instance for: NULL
LogInit: WinSock: version 1.1 (2.2), MaxSocks=32767, MaxUdp=65467
LogOnline: OSS: TryLoadSubsystemAndSetDefault: Loaded subsystem for module [NULL]
LogInit: Build: ++UE4+Release-4.26-CL-15973114
LogInit: Engine Version: 4.26.2-15973114+++UE4+Release-4.26
LogInit: Compatible Engine Version: 4.26.0-14830424+++UE4+Release-4.26
LogInit: Net CL: 14830424
LogInit: OS: Windows 10 (Release 1803) (), CPU: Intel(R) Core(TM) i7-8700K CPU @ 3.70GHz, GPU: NVIDIA GeForce GTX 1080 Ti
LogInit: Compiled (64-bit): Apr 12 2021 06:14:10
LogInit: Compiled with Visual C++: 19.24.28315.00
LogInit: Build Configuration: Development
LogInit: Branch Name: ++UE4+Release-4.26
LogInit: Command Line:  -skipcompile
LogInit: Base Directory: D:/Games/UE_4.26/Engine/Binaries/Win64/
LogInit: Allocator: TBB
LogInit: Installed Engine Build: 1
LogDevObjectVersion: Number of dev versions registered: 29
LogDevObjectVersion:   Dev-Blueprints (B0D832E4-1F89-4F0D-ACCF-7EB736FD4AA2): 10
LogDevObjectVersion:   Dev-Build (E1C64328-A22C-4D53-A36C-8E866417BD8C): 0
LogDevObjectVersion:   Dev-Core (375EC13C-06E4-48FB-B500-84F0262A717E): 4
LogDevObjectVersion:   Dev-Editor (E4B068ED-F494-42E9-A231-DA0B2E46BB41): 40
LogDevObjectVersion:   Dev-Framework (CFFC743F-43B0-4480-9391-14DF171D2073): 37
LogDevObjectVersion:   Dev-Mobile (B02B49B5-BB20-44E9-A304-32B752E40360): 3
LogDevObjectVersion:   Dev-Networking (A4E4105C-59A1-49B5-A7C5-40C4547EDFEE): 0
LogDevObjectVersion:   Dev-Online (39C831C9-5AE6-47DC-9A44-9C173E1C8E7C): 0
LogDevObjectVersion:   Dev-Physics (78F01B33-EBEA-4F98-B9B4-84EACCB95AA2): 4
LogDevObjectVersion:   Dev-Platform (6631380F-2D4D-43E0-8009-CF276956A95A): 0
LogDevObjectVersion:   Dev-Rendering (12F88B9F-8875-4AFC-A67C-D90C383ABD29): 44
LogDevObjectVersion:   Dev-Sequencer (7B5AE74C-D270-4C10-A958-57980B212A5A): 12
LogDevObjectVersion:   Dev-VR (D7296918-1DD6-4BDD-9DE2-64A83CC13884): 3
LogDevObjectVersion:   Dev-LoadTimes (C2A15278-BFE7-4AFE-6C17-90FF531DF755): 1
LogDevObjectVersion:   Private-Geometry (6EACA3D4-40EC-4CC1-B786-8BED09428FC5): 3
LogDevObjectVersion:   Dev-AnimPhys (29E575DD-E0A3-4627-9D10-D276232CDCEA): 17
LogDevObjectVersion:   Dev-Anim (AF43A65D-7FD3-4947-9873-3E8ED9C1BB05): 15
LogDevObjectVersion:   Dev-ReflectionCapture (6B266CEC-1EC7-4B8F-A30B-E4D90942FC07): 1
LogDevObjectVersion:   Dev-Automation (0DF73D61-A23F-47EA-B727-89E90C41499A): 1
LogDevObjectVersion:   FortniteMain (601D1886-AC64-4F84-AA16-D3DE0DEAC7D6): 43
LogDevObjectVersion:   FortniteRelease (E7086368-6B23-4C58-8439-1B7016265E91): 1
LogDevObjectVersion:   Dev-Enterprise (9DFFBCD6-494F-0158-E221-12823C92A888): 10
LogDevObjectVersion:   Dev-Niagara (F2AED0AC-9AFE-416F-8664-AA7FFA26D6FC): 1
LogDevObjectVersion:   Dev-Destruction (174F1F0B-B4C6-45A5-B13F-2EE8D0FB917D): 10
LogDevObjectVersion:   Dev-Physics-Ext (35F94A83-E258-406C-A318-09F59610247C): 40
LogDevObjectVersion:   Dev-PhysicsMaterial-Chaos (B68FC16E-8B1B-42E2-B453-215C058844FE): 1
LogDevObjectVersion:   Dev-CineCamera (B2E18506-4273-CFC2-A54E-F4BB758BBA07): 1
LogDevObjectVersion:   Dev-VirtualProduction (64F58936-FD1B-42BA-BA96-7289D5D0FA4E): 1
LogDevObjectVersion:   Dev-MediaFramework (6F0ED827-A609-4895-9C91-998D90180EA4): 2
LogInit: Presizing for max 25165824 objects, including 0 objects not considered by GC, pre-allocating 0 bytes for permanent pool.
LogConfig: Applying CVar settings from Section [/Script/Engine.StreamingSettings] File [D:/Epic Games/Epic Games/UE projects/sbHomework_20_5/Saved/Config/Windows/Engine.ini]
LogConfig: Setting CVar [[s.MinBulkDataSizeForAsyncLoading:131072]]
LogConfig: Setting CVar [[s.AsyncLoadingThreadEnabled:0]]
LogConfig: Setting CVar [[s.EventDrivenLoaderEnabled:1]]
LogConfig: Setting CVar [[s.WarnIfTimeLimitExceeded:0]]
LogConfig: Setting CVar [[s.TimeLimitExceededMultiplier:1.5]]
LogConfig: Setting CVar [[s.TimeLimitExceededMinTime:0.005]]
LogConfig: Setting CVar [[s.UseBackgroundLevelStreaming:1]]
LogConfig: Setting CVar [[s.PriorityAsyncLoadingExtraTime:15.0]]
LogConfig: Setting CVar [[s.LevelStreamingActorsUpdateTimeLimit:5.0]]
LogConfig: Setting CVar [[s.PriorityLevelStreamingActorsUpdateExtraTime:5.0]]
LogConfig: Setting CVar [[s.LevelStreamingComponentsRegistrationGranularity:10]]
LogConfig: Setting CVar [[s.UnregisterComponentsTimeLimit:1.0]]
LogConfig: Setting CVar [[s.LevelStreamingComponentsUnregistrationGranularity:5]]
LogConfig: Setting CVar [[s.FlushStreamingOnExit:1]]
LogInit: Object subsystem initialized
LogConfig: Setting CVar [[con.DebugEarlyDefault:1]]
LogConfig: Setting CVar [[r.setres:1280x720]]
[2021.09.18-22.25.05:361][  0]LogConfig: Setting CVar [[r.VSync:0]]
[2021.09.18-22.25.05:361][  0]LogConfig: Setting CVar [[r.RHICmdBypass:0]]
[2021.09.18-22.25.05:361][  0]LogConfig: Applying CVar settings from Section [/Script/Engine.RendererSettings] File [D:/Epic Games/Epic Games/UE projects/sbHomework_20_5/Saved/Config/Windows/Engine.ini]
[2021.09.18-22.25.05:361][  0]LogConfig: Setting CVar [[r.GPUCrashDebugging:0]]
[2021.09.18-22.25.05:361][  0]LogConfig: Setting CVar [[r.DefaultFeature.AntiAliasing:0]]
[2021.09.18-22.25.05:361][  0]LogConfig: Setting CVar [[r.DefaultFeature.MotionBlur:0]]
[2021.09.18-22.25.05:361][  0]LogConfig: Applying CVar settings from Section [/Script/Engine.RendererOverrideSettings] File [D:/Epic Games/Epic Games/UE projects/sbHomework_20_5/Saved/Config/Windows/Engine.ini]
[2021.09.18-22.25.05:361][  0]LogConfig: Applying CVar settings from Section [/Script/Engine.StreamingSettings] File [D:/Epic Games/Epic Games/UE projects/sbHomework_20_5/Saved/Config/Windows/Engine.ini]
[2021.09.18-22.25.05:361][  0]LogConfig: Setting CVar [[s.MinBulkDataSizeForAsyncLoading:131072]]
[2021.09.18-22.25.05:361][  0]LogConfig: Setting CVar [[s.AsyncLoadingThreadEnabled:0]]
[2021.09.18-22.25.05:361][  0]LogConfig: Setting CVar [[s.EventDrivenLoaderEnabled:1]]
[2021.09.18-22.25.05:361][  0]LogConfig: Setting CVar [[s.WarnIfTimeLimitExceeded:0]]
[2021.09.18-22.25.05:361][  0]LogConfig: Setting CVar [[s.TimeLimitExceededMultiplier:1.5]]
[2021.09.18-22.25.05:361][  0]LogConfig: Setting CVar [[s.TimeLimitExceededMinTime:0.005]]
[2021.09.18-22.25.05:361][  0]LogConfig: Setting CVar [[s.UseBackgroundLevelStreaming:1]]
[2021.09.18-22.25.05:361][  0]LogConfig: Setting CVar [[s.PriorityAsyncLoadingExtraTime:15.0]]
[2021.09.18-22.25.05:361][  0]LogConfig: Setting CVar [[s.LevelStreamingActorsUpdateTimeLimit:5.0]]
[2021.09.18-22.25.05:361][  0]LogConfig: Setting CVar [[s.PriorityLevelStreamingActorsUpdateExtraTime:5.0]]
[2021.09.18-22.25.05:361][  0]LogConfig: Setting CVar [[s.LevelStreamingComponentsRegistrationGranularity:10]]
[2021.09.18-22.25.05:361][  0]LogConfig: Setting CVar [[s.UnregisterComponentsTimeLimit:1.0]]
[2021.09.18-22.25.05:362][  0]LogConfig: Setting CVar [[s.LevelStreamingComponentsUnregistrationGranularity:5]]
[2021.09.18-22.25.05:362][  0]LogConfig: Setting CVar [[s.FlushStreamingOnExit:1]]
[2021.09.18-22.25.05:362][  0]LogConfig: Applying CVar settings from Section [/Script/Engine.GarbageCollectionSettings] File [D:/Epic Games/Epic Games/UE projects/sbHomework_20_5/Saved/Config/Windows/Engine.ini]
[2021.09.18-22.25.05:362][  0]LogConfig: Setting CVar [[gc.MaxObjectsNotConsideredByGC:1]]
[2021.09.18-22.25.05:362][  0]LogConfig: Setting CVar [[gc.SizeOfPermanentObjectPool:0]]
[2021.09.18-22.25.05:362][  0]LogConfig: Setting CVar [[gc.FlushStreamingOnGC:0]]
[2021.09.18-22.25.05:362][  0]LogConfig: Setting CVar [[gc.NumRetriesBeforeForcingGC:10]]
[2021.09.18-22.25.05:362][  0]LogConfig: Setting CVar [[gc.AllowParallelGC:1]]
[2021.09.18-22.25.05:362][  0]LogConfig: Setting CVar [[gc.TimeBetweenPurgingPendingKillObjects:61.1]]
[2021.09.18-22.25.05:362][  0]LogConfig: Setting CVar [[gc.MaxObjectsInEditor:25165824]]
[2021.09.18-22.25.05:362][  0]LogConfig: Setting CVar [[gc.IncrementalBeginDestroyEnabled:1]]
[2021.09.18-22.25.05:362][  0]LogConfig: Setting CVar [[gc.CreateGCClusters:1]]
[2021.09.18-22.25.05:362][  0]LogConfig: Setting CVar [[gc.MinGCClusterSize:5]]
[2021.09.18-22.25.05:362][  0]LogConfig: Setting CVar [[gc.ActorClusteringEnabled:0]]
[2021.09.18-22.25.05:362][  0]LogConfig: Setting CVar [[gc.BlueprintClusteringEnabled:0]]
[2021.09.18-22.25.05:362][  0]LogConfig: Setting CVar [[gc.UseDisregardForGCOnDedicatedServers:0]]
[2021.09.18-22.25.05:362][  0]LogConfig: Setting CVar [[gc.MultithreadedDestructionEnabled:1]]
[2021.09.18-22.25.05:362][  0]LogConfig: Applying CVar settings from Section [/Script/Engine.NetworkSettings] File [D:/Epic Games/Epic Games/UE projects/sbHomework_20_5/Saved/Config/Windows/Engine.ini]
[2021.09.18-22.25.05:362][  0]LogConfig: Applying CVar settings from Section [/Script/UnrealEd.CookerSettings] File [D:/Epic Games/Epic Games/UE projects/sbHomework_20_5/Saved/Config/Windows/Engine.ini]
[2021.09.18-22.25.05:394][  0]LogConfig: Applying CVar settings from Section [ViewDistanceQuality@3] File [D:/Epic Games/Epic Games/UE projects/sbHomework_20_5/Saved/Config/Windows/Scalability.ini]
[2021.09.18-22.25.05:394][  0]LogConfig: Setting CVar [[r.SkeletalMeshLODBias:0]]
[2021.09.18-22.25.05:394][  0]LogConfig: Setting CVar [[r.ViewDistanceScale:1.0]]
[2021.09.18-22.25.05:394][  0]LogConfig: Applying CVar settings from Section [AntiAliasingQuality@3] File [D:/Epic Games/Epic Games/UE projects/sbHomework_20_5/Saved/Config/Windows/Scalability.ini]
[2021.09.18-22.25.05:394][  0]LogConfig: Setting CVar [[r.PostProcessAAQuality:4]]
[2021.09.18-22.25.05:394][  0]LogConfig: Applying CVar settings from Section [ShadowQuality@3] File [D:/Epic Games/Epic Games/UE projects/sbHomework_20_5/Saved/Config/Windows/Scalability.ini]
[2021.09.18-22.25.05:394][  0]LogConfig: Setting CVar [[r.LightFunctionQuality:1]]
[2021.09.18-22.25.05:394][  0]LogConfig: Setting CVar [[r.ShadowQuality:5]]
[2021.09.18-22.25.05:394][  0]LogConfig: Setting CVar [[r.Shadow.CSM.MaxCascades:10]]
[2021.09.18-22.25.05:394][  0]LogConfig: Setting CVar [[r.Shadow.MaxResolution:2048]]
[2021.09.18-22.25.05:394][  0]LogConfig: Setting CVar [[r.Shadow.MaxCSMResolution:2048]]
[2021.09.18-22.25.05:394][  0]LogConfig: Setting CVar [[r.Shadow.RadiusThreshold:0.01]]
[2021.09.18-22.25.05:394][  0]LogConfig: Setting CVar [[r.Shadow.DistanceScale:1.0]]
[2021.09.18-22.25.05:394][  0]LogConfig: Setting CVar [[r.Shadow.CSM.TransitionScale:1.0]]
[2021.09.18-22.25.05:394][  0]LogConfig: Setting CVar [[r.Shadow.PreShadowResolutionFactor:1.0]]
[2021.09.18-22.25.05:394][  0]LogConfig: Setting CVar [[r.DistanceFieldShadowing:1]]
[2021.09.18-22.25.05:394][  0]LogConfig: Setting CVar [[r.DistanceFieldAO:1]]
[2021.09.18-22.25.05:394][  0]LogConfig: Setting CVar [[r.AOQuality:2]]
[2021.09.18-22.25.05:394][  0]LogConfig: Setting CVar [[r.VolumetricFog:1]]
[2021.09.18-22.25.05:394][  0]LogConfig: Setting CVar [[r.VolumetricFog.GridPixelSize:8]]
[2021.09.18-22.25.05:394][  0]LogConfig: Setting CVar [[r.VolumetricFog.GridSizeZ:128]]
[2021.09.18-22.25.05:394][  0]LogConfig: Setting CVar [[r.VolumetricFog.HistoryMissSupersampleCount:4]]
[2021.09.18-22.25.05:394][  0]LogConfig: Setting CVar [[r.LightMaxDrawDistanceScale:1]]
[2021.09.18-22.25.05:394][  0]LogConfig: Setting CVar [[r.CapsuleShadows:1]]
[2021.09.18-22.25.05:394][  0]LogConfig: Applying CVar settings from Section [PostProcessQuality@3] File [D:/Epic Games/Epic Games/UE projects/sbHomework_20_5/Saved/Config/Windows/Scalability.ini]
[2021.09.18-22.25.05:394][  0]LogConfig: Setting CVar [[r.MotionBlurQuality:4]]
[2021.09.18-22.25.05:394][  0]LogConfig: Setting CVar [[r.AmbientOcclusionMipLevelFactor:0.4]]
[2021.09.18-22.25.05:394][  0]LogConfig: Setting CVar [[r.AmbientOcclusionMaxQuality:100]]
[2021.09.18-22.25.05:394][  0]LogConfig: Setting CVar [[r.AmbientOcclusionLevels:-1]]
[2021.09.18-22.25.05:394][  0]LogConfig: Setting CVar [[r.AmbientOcclusionRadiusScale:1.0]]
[2021.09.18-22.25.05:394][  0]LogConfig: Setting CVar [[r.DepthOfFieldQuality:2]]
[2021.09.18-22.25.05:394][  0]LogConfig: Setting CVar [[r.RenderTargetPoolMin:400]]
[2021.09.18-22.25.05:394][  0]LogConfig: Setting CVar [[r.LensFlareQuality:2]]
[2021.09.18-22.25.05:394][  0]LogConfig: Setting CVar [[r.SceneColorFringeQuality:1]]
[2021.09.18-22.25.05:394][  0]LogConfig: Setting CVar [[r.EyeAdaptationQuality:2]]
[2021.09.18-22.25.05:394][  0]LogConfig: Setting CVar [[r.BloomQuality:5]]
[2021.09.18-22.25.05:394][  0]LogConfig: Setting CVar [[r.FastBlurThreshold:100]]
[2021.09.18-22.25.05:394][  0]LogConfig: Setting CVar [[r.Upscale.Quality:3]]
[2021.09.18-22.25.05:394][  0]LogConfig: Setting CVar [[r.Tonemapper.GrainQuantization:1]]
[2021.09.18-22.25.05:394][  0]LogConfig: Setting CVar [[r.LightShaftQuality:1]]
[2021.09.18-22.25.05:394][  0]LogConfig: Setting CVar [[r.Filter.SizeScale:1]]
[2021.09.18-22.25.05:394][  0]LogConfig: Setting CVar [[r.Tonemapper.Quality:5]]
[2021.09.18-22.25.05:394][  0]LogConfig: Setting CVar [[r.DOF.Gather.AccumulatorQuality:1        ; higher gathering accumulator quality]]
[2021.09.18-22.25.05:394][  0]LogConfig: Setting CVar [[r.DOF.Gather.PostfilterMethod:1          ; Median3x3 postfilering method]]
[2021.09.18-22.25.05:394][  0]LogConfig: Setting CVar [[r.DOF.Gather.EnableBokehSettings:0       ; no bokeh simulation when gathering]]
[2021.09.18-22.25.05:394][  0]LogConfig: Setting CVar [[r.DOF.Gather.RingCount:4                 ; medium number of samples when gathering]]
[2021.09.18-22.25.05:394][  0]LogConfig: Setting CVar [[r.DOF.Scatter.ForegroundCompositing:1    ; additive foreground scattering]]
[2021.09.18-22.25.05:394][  0]LogConfig: Setting CVar [[r.DOF.Scatter.BackgroundCompositing:2    ; additive background scattering]]
[2021.09.18-22.25.05:394][  0]LogConfig: Setting CVar [[r.DOF.Scatter.EnableBokehSettings:1      ; bokeh simulation when scattering]]
[2021.09.18-22.25.05:394][  0]LogConfig: Setting CVar [[r.DOF.Scatter.MaxSpriteRatio:0.1         ; only a maximum of 10% of scattered bokeh]]
[2021.09.18-22.25.05:394][  0]LogConfig: Setting CVar [[r.DOF.Recombine.Quality:1                ; cheap slight out of focus]]
[2021.09.18-22.25.05:394][  0]LogConfig: Setting CVar [[r.DOF.Recombine.EnableBokehSettings:0    ; no bokeh simulation on slight out of focus]]
[2021.09.18-22.25.05:394][  0]LogConfig: Setting CVar [[r.DOF.TemporalAAQuality:1                ; more stable temporal accumulation]]
[2021.09.18-22.25.05:394][  0]LogConfig: Setting CVar [[r.DOF.Kernel.MaxForegroundRadius:0.025]]
[2021.09.18-22.25.05:394][  0]LogConfig: Setting CVar [[r.DOF.Kernel.MaxBackgroundRadius:0.025]]
[2021.09.18-22.25.05:394][  0]LogConfig: Applying CVar settings from Section [TextureQuality@3] File [D:/Epic Games/Epic Games/UE projects/sbHomework_20_5/Saved/Config/Windows/Scalability.ini]
[2021.09.18-22.25.05:394][  0]LogConfig: Setting CVar [[r.Streaming.MipBias:0]]
[2021.09.18-22.25.05:394][  0]LogConfig: Setting CVar [[r.Streaming.AmortizeCPUToGPUCopy:0]]
[2021.09.18-22.25.05:394][  0]LogConfig: Setting CVar [[r.Streaming.MaxNumTexturesToStreamPerFrame:0]]
[2021.09.18-22.25.05:394][  0]LogConfig: Setting CVar [[r.Streaming.Boost:1]]
[2021.09.18-22.25.05:394][  0]LogConfig: Setting CVar [[r.MaxAnisotropy:8]]
[2021.09.18-22.25.05:394][  0]LogConfig: Setting CVar [[r.VT.MaxAnisotropy:8]]
[2021.09.18-22.25.05:394][  0]LogConfig: Setting CVar [[r.Streaming.LimitPoolSizeToVRAM:0]]
[2021.09.18-22.25.05:394][  0]LogConfig: Setting CVar [[r.Streaming.PoolSize:1000]]
[2021.09.18-22.25.05:394][  0]LogConfig: Setting CVar [[r.Streaming.MaxEffectiveScreenSize:0]]
[2021.09.18-22.25.05:394][  0]LogConfig: Applying CVar settings from Section [EffectsQuality@3] File [D:/Epic Games/Epic Games/UE projects/sbHomework_20_5/Saved/Config/Windows/Scalability.ini]
[2021.09.18-22.25.05:394][  0]LogConfig: Setting CVar [[r.TranslucencyLightingVolumeDim:64]]
[2021.09.18-22.25.05:394][  0]LogConfig: Setting CVar [[r.RefractionQuality:2]]
[2021.09.18-22.25.05:394][  0]LogConfig: Setting CVar [[r.SSR.Quality:3]]
[2021.09.18-22.25.05:394][  0]LogConfig: Setting CVar [[r.SSR.HalfResSceneColor:0]]
[2021.09.18-22.25.05:394][  0]LogConfig: Setting CVar [[r.SceneColorFormat:4]]
[2021.09.18-22.25.05:394][  0]LogConfig: Setting CVar [[r.DetailMode:2]]
[2021.09.18-22.25.05:394][  0]LogConfig: Setting CVar [[r.TranslucencyVolumeBlur:1]]
[2021.09.18-22.25.05:394][  0]LogConfig: Setting CVar [[r.MaterialQualityLevel:1 ; High quality]]
[2021.09.18-22.25.05:394][  0]LogConfig: Setting CVar [[r.AnisotropicMaterials:1]]
[2021.09.18-22.25.05:394][  0]LogConfig: Setting CVar [[r.SSS.Scale:1]]
[2021.09.18-22.25.05:394][  0]LogConfig: Setting CVar [[r.SSS.SampleSet:2]]
[2021.09.18-22.25.05:394][  0]LogConfig: Setting CVar [[r.SSS.Quality:1]]
[2021.09.18-22.25.05:394][  0]LogConfig: Setting CVar [[r.SSS.HalfRes:0]]
[2021.09.18-22.25.05:394][  0]LogConfig: Setting CVar [[r.SSGI.Quality:3]]
[2021.09.18-22.25.05:394][  0]LogConfig: Setting CVar [[r.EmitterSpawnRateScale:1.0]]
[2021.09.18-22.25.05:394][  0]LogConfig: Setting CVar [[r.ParticleLightQuality:2]]
[2021.09.18-22.25.05:394][  0]LogConfig: Setting CVar [[r.SkyAtmosphere.AerialPerspectiveLUT.FastApplyOnOpaque:1 ; Always have FastSkyLUT 1 in this case to avoid wrong sky]]
[2021.09.18-22.25.05:394][  0]LogConfig: Setting CVar [[r.SkyAtmosphere.AerialPerspectiveLUT.SampleCountMaxPerSlice:4]]
[2021.09.18-22.25.05:394][  0]LogConfig: Setting CVar [[r.SkyAtmosphere.AerialPerspectiveLUT.DepthResolution:16.0]]
[2021.09.18-22.25.05:395][  0]LogConfig: Setting CVar [[r.SkyAtmosphere.FastSkyLUT:1]]
[2021.09.18-22.25.05:395][  0]LogConfig: Setting CVar [[r.SkyAtmosphere.FastSkyLUT.SampleCountMin:4.0]]
[2021.09.18-22.25.05:395][  0]LogConfig: Setting CVar [[r.SkyAtmosphere.FastSkyLUT.SampleCountMax:128.0]]
[2021.09.18-22.25.05:395][  0]LogConfig: Setting CVar [[r.SkyAtmosphere.SampleCountMin:4.0]]
[2021.09.18-22.25.05:395][  0]LogConfig: Setting CVar [[r.SkyAtmosphere.SampleCountMax:128.0]]
[2021.09.18-22.25.05:395][  0]LogConfig: Setting CVar [[r.SkyAtmosphere.TransmittanceLUT.UseSmallFormat:0]]
[2021.09.18-22.25.05:395][  0]LogConfig: Setting CVar [[r.SkyAtmosphere.TransmittanceLUT.SampleCount:10.0]]
[2021.09.18-22.25.05:395][  0]LogConfig: Setting CVar [[r.SkyAtmosphere.MultiScatteringLUT.SampleCount:15.0]]
[2021.09.18-22.25.05:395][  0]LogConfig: Applying CVar settings from Section [FoliageQuality@3] File [D:/Epic Games/Epic Games/UE projects/sbHomework_20_5/Saved/Config/Windows/Scalability.ini]
[2021.09.18-22.25.05:395][  0]LogConfig: Setting CVar [[foliage.DensityScale:1.0]]
[2021.09.18-22.25.05:395][  0]LogConfig: Setting CVar [[grass.DensityScale:1.0]]
[2021.09.18-22.25.05:395][  0]LogConfig: Applying CVar settings from Section [ShadingQuality@3] File [D:/Epic Games/Epic Games/UE projects/sbHomework_20_5/Saved/Config/Windows/Scalability.ini]
[2021.09.18-22.25.05:395][  0]LogConfig: Setting CVar [[r.HairStrands.SkyLighting.IntegrationType:2]]
[2021.09.18-22.25.05:395][  0]LogConfig: Setting CVar [[r.HairStrands.SkyAO.SampleCount:4]]
[2021.09.18-22.25.05:395][  0]LogConfig: Setting CVar [[r.HairStrands.Visibility.MSAA.SamplePerPixel:4]]
[2021.09.18-22.25.05:395][  0]LogInit: Selected Device Profile: [Windows]
[2021.09.18-22.25.05:395][  0]LogInit: Applying CVar settings loaded from the selected device profile: [Windows]
[2021.09.18-22.25.05:395][  0]LogHAL: Display: Platform has ~ 32 GB [34289451008 / 34359738368 / 32], which maps to Largest [LargestMinGB=32, LargerMinGB=12, DefaultMinGB=8, SmallerMinGB=6, SmallestMinGB=0)
[2021.09.18-22.25.05:395][  0]LogInit: Going up to parent DeviceProfile []
[2021.09.18-22.25.05:395][  0]LogConfig: Applying CVar settings from Section [ViewDistanceQuality@3] File [D:/Epic Games/Epic Games/UE projects/sbHomework_20_5/Saved/Config/Windows/Scalability.ini]
[2021.09.18-22.25.05:395][  0]LogConfig: Setting CVar [[r.SkeletalMeshLODBias:0]]
[2021.09.18-22.25.05:395][  0]LogConfig: Setting CVar [[r.ViewDistanceScale:1.0]]
[2021.09.18-22.25.05:395][  0]LogConfig: Applying CVar settings from Section [AntiAliasingQuality@3] File [D:/Epic Games/Epic Games/UE projects/sbHomework_20_5/Saved/Config/Windows/Scalability.ini]
[2021.09.18-22.25.05:395][  0]LogConfig: Setting CVar [[r.PostProcessAAQuality:4]]
[2021.09.18-22.25.05:395][  0]LogConfig: Applying CVar settings from Section [ShadowQuality@3] File [D:/Epic Games/Epic Games/UE projects/sbHomework_20_5/Saved/Config/Windows/Scalability.ini]
[2021.09.18-22.25.05:395][  0]LogConfig: Setting CVar [[r.LightFunctionQuality:1]]
[2021.09.18-22.25.05:395][  0]LogConfig: Setting CVar [[r.ShadowQuality:5]]
[2021.09.18-22.25.05:395][  0]LogConfig: Setting CVar [[r.Shadow.CSM.MaxCascades:10]]
[2021.09.18-22.25.05:395][  0]LogConfig: Setting CVar [[r.Shadow.MaxResolution:2048]]
[2021.09.18-22.25.05:395][  0]LogConfig: Setting CVar [[r.Shadow.MaxCSMResolution:2048]]
[2021.09.18-22.25.05:395][  0]LogConfig: Setting CVar [[r.Shadow.RadiusThreshold:0.01]]
[2021.09.18-22.25.05:395][  0]LogConfig: Setting CVar [[r.Shadow.DistanceScale:1.0]]
[2021.09.18-22.25.05:395][  0]LogConfig: Setting CVar [[r.Shadow.CSM.TransitionScale:1.0]]
[2021.09.18-22.25.05:395][  0]LogConfig: Setting CVar [[r.Shadow.PreShadowResolutionFactor:1.0]]
[2021.09.18-22.25.05:395][  0]LogConfig: Setting CVar [[r.DistanceFieldShadowing:1]]
[2021.09.18-22.25.05:395][  0]LogConfig: Setting CVar [[r.DistanceFieldAO:1]]
[2021.09.18-22.25.05:395][  0]LogConfig: Setting CVar [[r.AOQuality:2]]
[2021.09.18-22.25.05:395][  0]LogConfig: Setting CVar [[r.VolumetricFog:1]]
[2021.09.18-22.25.05:395][  0]LogConfig: Setting CVar [[r.VolumetricFog.GridPixelSize:8]]
[2021.09.18-22.25.05:395][  0]LogConfig: Setting CVar [[r.VolumetricFog.GridSizeZ:128]]
[2021.09.18-22.25.05:395][  0]LogConfig: Setting CVar [[r.VolumetricFog.HistoryMissSupersampleCount:4]]
[2021.09.18-22.25.05:395][  0]LogConfig: Setting CVar [[r.LightMaxDrawDistanceScale:1]]
[2021.09.18-22.25.05:395][  0]LogConfig: Setting CVar [[r.CapsuleShadows:1]]
[2021.09.18-22.25.05:395][  0]LogConfig: Applying CVar settings from Section [PostProcessQuality@3] File [D:/Epic Games/Epic Games/UE projects/sbHomework_20_5/Saved/Config/Windows/Scalability.ini]
[2021.09.18-22.25.05:395][  0]LogConfig: Setting CVar [[r.MotionBlurQuality:4]]
[2021.09.18-22.25.05:395][  0]LogConfig: Setting CVar [[r.AmbientOcclusionMipLevelFactor:0.4]]
[2021.09.18-22.25.05:395][  0]LogConfig: Setting CVar [[r.AmbientOcclusionMaxQuality:100]]
[2021.09.18-22.25.05:395][  0]LogConfig: Setting CVar [[r.AmbientOcclusionLevels:-1]]
[2021.09.18-22.25.05:395][  0]LogConfig: Setting CVar [[r.AmbientOcclusionRadiusScale:1.0]]
[2021.09.18-22.25.05:395][  0]LogConfig: Setting CVar [[r.DepthOfFieldQuality:2]]
[2021.09.18-22.25.05:395][  0]LogConfig: Setting CVar [[r.RenderTargetPoolMin:400]]
[2021.09.18-22.25.05:395][  0]LogConfig: Setting CVar [[r.LensFlareQuality:2]]
[2021.09.18-22.25.05:395][  0]LogConfig: Setting CVar [[r.SceneColorFringeQuality:1]]
[2021.09.18-22.25.05:395][  0]LogConfig: Setting CVar [[r.EyeAdaptationQuality:2]]
[2021.09.18-22.25.05:395][  0]LogConfig: Setting CVar [[r.BloomQuality:5]]
[2021.09.18-22.25.05:395][  0]LogConfig: Setting CVar [[r.FastBlurThreshold:100]]
[2021.09.18-22.25.05:395][  0]LogConfig: Setting CVar [[r.Upscale.Quality:3]]
[2021.09.18-22.25.05:395][  0]LogConfig: Setting CVar [[r.Tonemapper.GrainQuantization:1]]
[2021.09.18-22.25.05:395][  0]LogConfig: Setting CVar [[r.LightShaftQuality:1]]
[2021.09.18-22.25.05:395][  0]LogConfig: Setting CVar [[r.Filter.SizeScale:1]]
[2021.09.18-22.25.05:395][  0]LogConfig: Setting CVar [[r.Tonemapper.Quality:5]]
[2021.09.18-22.25.05:395][  0]LogConfig: Setting CVar [[r.DOF.Gather.AccumulatorQuality:1        ; higher gathering accumulator quality]]
[2021.09.18-22.25.05:395][  0]LogConfig: Setting CVar [[r.DOF.Gather.PostfilterMethod:1          ; Median3x3 postfilering method]]
[2021.09.18-22.25.05:395][  0]LogConfig: Setting CVar [[r.DOF.Gather.EnableBokehSettings:0       ; no bokeh simulation when gathering]]
[2021.09.18-22.25.05:395][  0]LogConfig: Setting CVar [[r.DOF.Gather.RingCount:4                 ; medium number of samples when gathering]]
[2021.09.18-22.25.05:395][  0]LogConfig: Setting CVar [[r.DOF.Scatter.ForegroundCompositing:1    ; additive foreground scattering]]
[2021.09.18-22.25.05:395][  0]LogConfig: Setting CVar [[r.DOF.Scatter.BackgroundCompositing:2    ; additive background scattering]]
[2021.09.18-22.25.05:395][  0]LogConfig: Setting CVar [[r.DOF.Scatter.EnableBokehSettings:1      ; bokeh simulation when scattering]]
[2021.09.18-22.25.05:395][  0]LogConfig: Setting CVar [[r.DOF.Scatter.MaxSpriteRatio:0.1         ; only a maximum of 10% of scattered bokeh]]
[2021.09.18-22.25.05:395][  0]LogConfig: Setting CVar [[r.DOF.Recombine.Quality:1                ; cheap slight out of focus]]
[2021.09.18-22.25.05:395][  0]LogConfig: Setting CVar [[r.DOF.Recombine.EnableBokehSettings:0    ; no bokeh simulation on slight out of focus]]
[2021.09.18-22.25.05:395][  0]LogConfig: Setting CVar [[r.DOF.TemporalAAQuality:1                ; more stable temporal accumulation]]
[2021.09.18-22.25.05:395][  0]LogConfig: Setting CVar [[r.DOF.Kernel.MaxForegroundRadius:0.025]]
[2021.09.18-22.25.05:395][  0]LogConfig: Setting CVar [[r.DOF.Kernel.MaxBackgroundRadius:0.025]]
[2021.09.18-22.25.05:395][  0]LogConfig: Applying CVar settings from Section [TextureQuality@3] File [D:/Epic Games/Epic Games/UE projects/sbHomework_20_5/Saved/Config/Windows/Scalability.ini]
[2021.09.18-22.25.05:395][  0]LogConfig: Setting CVar [[r.Streaming.MipBias:0]]
[2021.09.18-22.25.05:395][  0]LogConfig: Setting CVar [[r.Streaming.AmortizeCPUToGPUCopy:0]]
[2021.09.18-22.25.05:395][  0]LogConfig: Setting CVar [[r.Streaming.MaxNumTexturesToStreamPerFrame:0]]
[2021.09.18-22.25.05:395][  0]LogConfig: Setting CVar [[r.Streaming.Boost:1]]
[2021.09.18-22.25.05:395][  0]LogConfig: Setting CVar [[r.MaxAnisotropy:8]]
[2021.09.18-22.25.05:395][  0]LogConfig: Setting CVar [[r.VT.MaxAnisotropy:8]]
[2021.09.18-22.25.05:395][  0]LogConfig: Setting CVar [[r.Streaming.LimitPoolSizeToVRAM:0]]
[2021.09.18-22.25.05:395][  0]LogConfig: Setting CVar [[r.Streaming.PoolSize:1000]]
[2021.09.18-22.25.05:395][  0]LogConfig: Setting CVar [[r.Streaming.MaxEffectiveScreenSize:0]]
[2021.09.18-22.25.05:395][  0]LogConfig: Applying CVar settings from Section [EffectsQuality@3] File [D:/Epic Games/Epic Games/UE projects/sbHomework_20_5/Saved/Config/Windows/Scalability.ini]
[2021.09.18-22.25.05:396][  0]LogConfig: Setting CVar [[r.TranslucencyLightingVolumeDim:64]]
[2021.09.18-22.25.05:396][  0]LogConfig: Setting CVar [[r.RefractionQuality:2]]
[2021.09.18-22.25.05:396][  0]LogConfig: Setting CVar [[r.SSR.Quality:3]]
[2021.09.18-22.25.05:396][  0]LogConfig: Setting CVar [[r.SSR.HalfResSceneColor:0]]
[2021.09.18-22.25.05:396][  0]LogConfig: Setting CVar [[r.SceneColorFormat:4]]
[2021.09.18-22.25.05:396][  0]LogConfig: Setting CVar [[r.DetailMode:2]]
[2021.09.18-22.25.05:396][  0]LogConfig: Setting CVar [[r.TranslucencyVolumeBlur:1]]
[2021.09.18-22.25.05:396][  0]LogConfig: Setting CVar [[r.MaterialQualityLevel:1 ; High quality]]
[2021.09.18-22.25.05:396][  0]LogConfig: Setting CVar [[r.AnisotropicMaterials:1]]
[2021.09.18-22.25.05:396][  0]LogConfig: Setting CVar [[r.SSS.Scale:1]]
[2021.09.18-22.25.05:396][  0]LogConfig: Setting CVar [[r.SSS.SampleSet:2]]
[2021.09.18-22.25.05:396][  0]LogConfig: Setting CVar [[r.SSS.Quality:1]]
[2021.09.18-22.25.05:396][  0]LogConfig: Setting CVar [[r.SSS.HalfRes:0]]
[2021.09.18-22.25.05:396][  0]LogConfig: Setting CVar [[r.SSGI.Quality:3]]
[2021.09.18-22.25.05:396][  0]LogConfig: Setting CVar [[r.EmitterSpawnRateScale:1.0]]
[2021.09.18-22.25.05:396][  0]LogConfig: Setting CVar [[r.ParticleLightQuality:2]]
[2021.09.18-22.25.05:396][  0]LogConfig: Setting CVar [[r.SkyAtmosphere.AerialPerspectiveLUT.FastApplyOnOpaque:1 ; Always have FastSkyLUT 1 in this case to avoid wrong sky]]
[2021.09.18-22.25.05:396][  0]LogConfig: Setting CVar [[r.SkyAtmosphere.AerialPerspectiveLUT.SampleCountMaxPerSlice:4]]
[2021.09.18-22.25.05:396][  0]LogConfig: Setting CVar [[r.SkyAtmosphere.AerialPerspectiveLUT.DepthResolution:16.0]]
[2021.09.18-22.25.05:396][  0]LogConfig: Setting CVar [[r.SkyAtmosphere.FastSkyLUT:1]]
[2021.09.18-22.25.05:396][  0]LogConfig: Setting CVar [[r.SkyAtmosphere.FastSkyLUT.SampleCountMin:4.0]]
[2021.09.18-22.25.05:396][  0]LogConfig: Setting CVar [[r.SkyAtmosphere.FastSkyLUT.SampleCountMax:128.0]]
[2021.09.18-22.25.05:396][  0]LogConfig: Setting CVar [[r.SkyAtmosphere.SampleCountMin:4.0]]
[2021.09.18-22.25.05:396][  0]LogConfig: Setting CVar [[r.SkyAtmosphere.SampleCountMax:128.0]]
[2021.09.18-22.25.05:396][  0]LogConfig: Setting CVar [[r.SkyAtmosphere.TransmittanceLUT.UseSmallFormat:0]]
[2021.09.18-22.25.05:396][  0]LogConfig: Setting CVar [[r.SkyAtmosphere.TransmittanceLUT.SampleCount:10.0]]
[2021.09.18-22.25.05:396][  0]LogConfig: Setting CVar [[r.SkyAtmosphere.MultiScatteringLUT.SampleCount:15.0]]
[2021.09.18-22.25.05:396][  0]LogConfig: Applying CVar settings from Section [FoliageQuality@3] File [D:/Epic Games/Epic Games/UE projects/sbHomework_20_5/Saved/Config/Windows/Scalability.ini]
[2021.09.18-22.25.05:396][  0]LogConfig: Setting CVar [[foliage.DensityScale:1.0]]
[2021.09.18-22.25.05:396][  0]LogConfig: Setting CVar [[grass.DensityScale:1.0]]
[2021.09.18-22.25.05:396][  0]LogConfig: Applying CVar settings from Section [ShadingQuality@3] File [D:/Epic Games/Epic Games/UE projects/sbHomework_20_5/Saved/Config/Windows/Scalability.ini]
[2021.09.18-22.25.05:396][  0]LogConfig: Setting CVar [[r.HairStrands.SkyLighting.IntegrationType:2]]
[2021.09.18-22.25.05:396][  0]LogConfig: Setting CVar [[r.HairStrands.SkyAO.SampleCount:4]]
[2021.09.18-22.25.05:396][  0]LogConfig: Setting CVar [[r.HairStrands.Visibility.MSAA.SamplePerPixel:4]]
[2021.09.18-22.25.05:396][  0]LogConfig: Applying CVar settings from Section [Startup] File [../../../Engine/Config/ConsoleVariables.ini]
[2021.09.18-22.25.05:396][  0]LogConfig: Setting CVar [[net.UseAdaptiveNetUpdateFrequency:0]]
[2021.09.18-22.25.05:396][  0]LogConfig: Setting CVar [[p.chaos.AllowCreatePhysxBodies:1]]
[2021.09.18-22.25.05:396][  0]LogConfig: Setting CVar [[fx.SkipVectorVMBackendOptimizations:1]]
[2021.09.18-22.25.05:396][  0]LogConfig: Applying CVar settings from Section [ConsoleVariables] File [D:/Epic Games/Epic Games/UE projects/sbHomework_20_5/Saved/Config/Windows/Engine.ini]
[2021.09.18-22.25.05:396][  0]LogConfig: Applying CVar settings from Section [ConsoleVariables] File [D:/Epic Games/Epic Games/UE projects/sbHomework_20_5/Saved/Config/Windows/Editor.ini]
[2021.09.18-22.25.05:396][  0]LogInit: Computer: HUMMERE
[2021.09.18-22.25.05:396][  0]LogInit: User: Admin
[2021.09.18-22.25.05:396][  0]LogInit: CPU Page size=4096, Cores=6
[2021.09.18-22.25.05:396][  0]LogInit: High frequency timer resolution =3.609370 MHz
[2021.09.18-22.25.05:396][  0]LogMemory: Memory total: Physical=31.9GB (32GB approx)
[2021.09.18-22.25.05:396][  0]LogMemory: Platform Memory Stats for Windows
[2021.09.18-22.25.05:396][  0]LogMemory: Process Physical Memory: 132.09 MB used, 132.09 MB peak
[2021.09.18-22.25.05:396][  0]LogMemory: Process Virtual Memory: 120.29 MB used, 120.29 MB peak
[2021.09.18-22.25.05:396][  0]LogMemory: Physical Memory: 15005.64 MB used,  17695.33 MB free, 32700.97 MB total
[2021.09.18-22.25.05:396][  0]LogMemory: Virtual Memory: 134203056.00 MB used,  14668.40 MB free, 134217728.00 MB total
[2021.09.18-22.25.05:401][  0]LogWindows: WindowsPlatformFeatures enabled
[2021.09.18-22.25.05:438][  0]LogInit: Physics initialised using underlying interface: PhysX
[2021.09.18-22.25.05:439][  0]LogInit: Using OS detected language (ru-RU).
[2021.09.18-22.25.05:439][  0]LogInit: Using OS detected locale (ru-RU).
[2021.09.18-22.25.05:441][  0]LogTextLocalizationManager: No specific localization for 'ru-RU' exists, so the 'ru' localization will be used.
[2021.09.18-22.25.05:441][  0]LogTextLocalizationResource: LocRes '../../../Engine/Content/Localization/Editor/ru/Editor.locres' could not be opened for reading!
[2021.09.18-22.25.05:441][  0]LogTextLocalizationResource: LocRes '../../../Engine/Content/Localization/EditorTutorials/ru/EditorTutorials.locres' could not be opened for reading!
[2021.09.18-22.25.05:441][  0]LogTextLocalizationResource: LocRes '../../../Engine/Content/Localization/Keywords/ru/Keywords.locres' could not be opened for reading!
[2021.09.18-22.25.05:441][  0]LogTextLocalizationResource: LocRes '../../../Engine/Content/Localization/Category/ru/Category.locres' could not be opened for reading!
[2021.09.18-22.25.05:441][  0]LogTextLocalizationResource: LocRes '../../../Engine/Content/Localization/ToolTips/ru/ToolTips.locres' could not be opened for reading!
[2021.09.18-22.25.05:441][  0]LogTextLocalizationResource: LocRes '../../../Engine/Content/Localization/PropertyNames/ru/PropertyNames.locres' could not be opened for reading!
[2021.09.18-22.25.05:441][  0]LogTextLocalizationResource: LocRes '../../../Engine/Content/Localization/Engine/ru/Engine.locres' could not be opened for reading!
[2021.09.18-22.25.05:442][  0]LogInit: Setting process to per monitor DPI aware
[2021.09.18-22.25.05:449][  0]LogWindowsTextInputMethodSystem: Display: IME system deactivated.
[2021.09.18-22.25.05:467][  0]LogSlate: New Slate User Created.  User Index 0, Is Virtual User: 0
[2021.09.18-22.25.05:468][  0]LogSlate: Slate User Registered.  User Index 0, Is Virtual User: 0
[2021.09.18-22.25.05:609][  0]LogHMD: Failed to initialize OpenVR with code 108
[2021.09.18-22.25.05:609][  0]LogD3D11RHI: D3D11 min allowed feature level: 11_0
[2021.09.18-22.25.05:609][  0]LogD3D11RHI: D3D11 max allowed feature level: 11_0
[2021.09.18-22.25.05:609][  0]LogD3D11RHI: D3D11 adapters:
[2021.09.18-22.25.05:694][  0]LogD3D11RHI:    0. 'NVIDIA GeForce GTX 1080 Ti' (Feature Level 11_0)
[2021.09.18-22.25.05:694][  0]LogD3D11RHI:       11031/0/16350 MB DedicatedVideo/DedicatedSystem/SharedSystem, Outputs:1, VendorId:0x10de
[2021.09.18-22.25.05:696][  0]LogD3D11RHI:    1. 'Microsoft Basic Render Driver' (Feature Level 11_0)
[2021.09.18-22.25.05:696][  0]LogD3D11RHI:       0/0/16350 MB DedicatedVideo/DedicatedSystem/SharedSystem, Outputs:0, VendorId:0x1414
[2021.09.18-22.25.05:696][  0]LogD3D11RHI: Chosen D3D11 Adapter: 0
[2021.09.18-22.25.05:702][  0]LogD3D11RHI: Creating new Direct3DDevice
[2021.09.18-22.25.05:702][  0]LogD3D11RHI:     GPU DeviceId: 0x1b06 (for the marketing name, search the web for "GPU Device Id")
[2021.09.18-22.25.05:702][  0]LogWindows: EnumDisplayDevices:
[2021.09.18-22.25.05:702][  0]LogWindows:    0. 'NVIDIA GeForce GTX 1080 Ti' (P:1 D:1)
[2021.09.18-22.25.05:702][  0]LogWindows:    1. 'NVIDIA GeForce GTX 1080 Ti' (P:0 D:0)
[2021.09.18-22.25.05:702][  0]LogWindows:    2. 'NVIDIA GeForce GTX 1080 Ti' (P:0 D:0)
[2021.09.18-22.25.05:703][  0]LogWindows:    3. 'NVIDIA GeForce GTX 1080 Ti' (P:0 D:0)
[2021.09.18-22.25.05:703][  0]LogWindows:    4. 'DameWare Development Mirror Driver 64-bit' (P:0 D:0)
[2021.09.18-22.25.05:703][  0]LogWindows: DebugString: GetVideoDriverDetailsInvalid PrimaryIsNotTheChoosenAdapter FoundDriverCount:4 
[2021.09.18-22.25.05:703][  0]LogD3D11RHI:     Adapter Name: NVIDIA GeForce GTX 1080 Ti
[2021.09.18-22.25.05:703][  0]LogD3D11RHI:   Driver Version: 471.11 (internal:30.0.14.7111, unified:471.11)
[2021.09.18-22.25.05:703][  0]LogD3D11RHI:      Driver Date: 6-21-2021
[2021.09.18-22.25.05:703][  0]LogRHI: Texture pool is 7721 MB (70% of 11031 MB)
[2021.09.18-22.25.05:753][  0]LogD3D11RHI: RHI has support for 64 bit atomics
[2021.09.18-22.25.05:753][  0]LogD3D11RHI: Async texture creation enabled
[2021.09.18-22.25.05:753][  0]LogD3D11RHI: Array index from any shader is supported
[2021.09.18-22.25.05:754][  0]LogD3D11RHI: HDR output is supported on display 0 (NvId: 0x80061087).
[2021.09.18-22.25.05:771][  0]LogD3D11RHI: GPU Timing Frequency: 1000.000000 (Debug: 2 1)
[2021.09.18-22.25.05:773][  0]LogRHI: GeForceNow SDK initialized: 1
[2021.09.18-22.25.06:004][  0]LogTargetPlatformManager: Display: Loaded TargetPlatform 'AllDesktop'
[2021.09.18-22.25.06:019][  0]LogTargetPlatformManager: Display: Loaded TargetPlatform 'Android'
[2021.09.18-22.25.06:019][  0]LogTargetPlatformManager: Display: Loaded TargetPlatform 'Android_ASTC'
[2021.09.18-22.25.06:019][  0]LogTargetPlatformManager: Display: Loaded TargetPlatform 'Android_DXT'
[2021.09.18-22.25.06:019][  0]LogTargetPlatformManager: Display: Loaded TargetPlatform 'Android_ETC2'
[2021.09.18-22.25.06:019][  0]LogTargetPlatformManager: Display: Loaded TargetPlatform 'AndroidClient'
[2021.09.18-22.25.06:019][  0]LogTargetPlatformManager: Display: Loaded TargetPlatform 'Android_ASTCClient'
[2021.09.18-22.25.06:019][  0]LogTargetPlatformManager: Display: Loaded TargetPlatform 'Android_DXTClient'
[2021.09.18-22.25.06:019][  0]LogTargetPlatformManager: Display: Loaded TargetPlatform 'Android_ETC2Client'
[2021.09.18-22.25.06:019][  0]LogTargetPlatformManager: Display: Loaded TargetPlatform 'Android_Multi'
[2021.09.18-22.25.06:019][  0]LogTargetPlatformManager: Display: Loaded TargetPlatform 'Android_MultiClient'
[2021.09.18-22.25.06:036][  0]LogTargetPlatformManager: Display: Loaded TargetPlatform 'IOSClient'
[2021.09.18-22.25.06:036][  0]LogTargetPlatformManager: Display: Loaded TargetPlatform 'IOS'
[2021.09.18-22.25.06:043][  0]LogTargetPlatformManager: Display: Loaded TargetPlatform 'Linux'
[2021.09.18-22.25.06:049][  0]LogTargetPlatformManager: Display: Loaded TargetPlatform 'LinuxNoEditor'
[2021.09.18-22.25.06:055][  0]LogTargetPlatformManager: Display: Loaded TargetPlatform 'LinuxClient'
[2021.09.18-22.25.06:062][  0]LogTargetPlatformManager: Display: Loaded TargetPlatform 'LinuxServer'
[2021.09.18-22.25.06:068][  0]LogTargetPlatformManager: Display: Loaded TargetPlatform 'LinuxAArch64NoEditor'
[2021.09.18-22.25.06:075][  0]LogTargetPlatformManager: Display: Loaded TargetPlatform 'LinuxAArch64Client'
[2021.09.18-22.25.06:081][  0]LogTargetPlatformManager: Display: Loaded TargetPlatform 'LinuxAArch64Server'
[2021.09.18-22.25.06:098][  0]LogTargetPlatformManager: Display: Loaded TargetPlatform 'Lumin'
[2021.09.18-22.25.06:098][  0]LogTargetPlatformManager: Display: Loaded TargetPlatform 'LuminClient'
[2021.09.18-22.25.06:105][  0]LogTargetPlatformManager: Display: Loaded TargetPlatform 'MacNoEditor'
[2021.09.18-22.25.06:111][  0]LogTargetPlatformManager: Display: Loaded TargetPlatform 'Mac'
[2021.09.18-22.25.06:117][  0]LogTargetPlatformManager: Display: Loaded TargetPlatform 'MacClient'
[2021.09.18-22.25.06:123][  0]LogTargetPlatformManager: Display: Loaded TargetPlatform 'MacServer'
[2021.09.18-22.25.06:134][  0]LogTargetPlatformManager: Display: Loaded TargetPlatform 'TVOSClient'
[2021.09.18-22.25.06:134][  0]LogTargetPlatformManager: Display: Loaded TargetPlatform 'TVOS'
[2021.09.18-22.25.06:140][  0]LogTargetPlatformManager: Display: Loaded TargetPlatform 'WindowsNoEditor'
[2021.09.18-22.25.06:147][  0]LogTargetPlatformManager: Display: Loaded TargetPlatform 'Windows'
[2021.09.18-22.25.06:153][  0]LogTargetPlatformManager: Display: Loaded TargetPlatform 'WindowsClient'
[2021.09.18-22.25.06:159][  0]LogTargetPlatformManager: Display: Loaded TargetPlatform 'WindowsServer'
[2021.09.18-22.25.06:159][  0]LogTargetPlatformManager: Display: Building Assets For Windows
[2021.09.18-22.25.06:165][  0]LogAudioDebug: Display: Lib vorbis DLL was dynamically loaded.
[2021.09.18-22.25.06:212][  0]LogRendererCore: Ray tracing is disabled. Reason: r.RayTracing=0.
[2021.09.18-22.25.06:212][  0]LogShaderCompilers: Guid format shader working directory is -18 characters bigger than the processId version (../../../../../Epic Games/Epic Games/UE projects/sbHomework_20_5/Intermediate/Shaders/WorkingDirectory/1448/).
[2021.09.18-22.25.06:213][  0]LogShaderCompilers: Cleaned the shader compiler working directory 'C:/Users/Admin/AppData/Local/Temp/UnrealShaderWorkingDir/F3764390486F1AAF45CDD49651D5942B/'.
[2021.09.18-22.25.06:213][  0]LogShaderCompilers: Cannot use XGE Shader Compiler as Incredibuild is not installed on this machine.
[2021.09.18-22.25.06:213][  0]LogShaderCompilers: Display: Using Local Shader Compiler.
[2021.09.18-22.25.06:847][  0]LogDerivedDataCache: Display: Max Cache Size: 512 MB
[2021.09.18-22.25.06:889][  0]LogDerivedDataCache: Loaded boot cache 0.04s 77MB C:/Users/Admin/AppData/Local/UnrealEngine/4.26/DerivedDataCache/Boot.ddc.
[2021.09.18-22.25.06:889][  0]LogDerivedDataCache: Display: Loaded Boot cache: C:/Users/Admin/AppData/Local/UnrealEngine/4.26/DerivedDataCache/Boot.ddc
[2021.09.18-22.25.06:889][  0]LogDerivedDataCache: FDerivedDataBackendGraph:  Pak pak cache file ../../../../../Epic Games/Epic Games/UE projects/sbHomework_20_5/DerivedDataCache/DDC.ddp not found, will not use a pak cache.
[2021.09.18-22.25.06:889][  0]LogDerivedDataCache: Unable to find inner node Pak for hierarchical cache Hierarchy.
[2021.09.18-22.25.06:889][  0]LogDerivedDataCache: FDerivedDataBackendGraph:  CompressedPak pak cache file ../../../../../Epic Games/Epic Games/UE projects/sbHomework_20_5/DerivedDataCache/Compressed.ddp not found, will not use a pak cache.
[2021.09.18-22.25.06:889][  0]LogDerivedDataCache: Unable to find inner node CompressedPak for hierarchical cache Hierarchy.
[2021.09.18-22.25.06:898][  0]LogDerivedDataCache: Display: Pak cache opened for reading ../../../Engine/DerivedDataCache/Compressed.ddp.
[2021.09.18-22.25.06:899][  0]LogDerivedDataCache: FDerivedDataBackendGraph:  EnterprisePak pak cache file ../../../Enterprise/DerivedDataCache/Compressed.ddp not found, will not use a pak cache.
[2021.09.18-22.25.06:899][  0]LogDerivedDataCache: Unable to find inner node EnterprisePak for hierarchical cache Hierarchy.
[2021.09.18-22.25.06:904][  0]LogDerivedDataCache: Speed tests for C:/Users/Admin/AppData/Local/UnrealEngine/Common/DerivedDataCache took 0.01 seconds
[2021.09.18-22.25.06:904][  0]LogDerivedDataCache: Display: Performance to C:/Users/Admin/AppData/Local/UnrealEngine/Common/DerivedDataCache: Latency=0.02ms. RandomReadSpeed=1287.14MBs, RandomWriteSpeed=218.96MBs. Assigned SpeedClass 'Local'
[2021.09.18-22.25.06:904][  0]LogDerivedDataCache: Using Local data cache path C:/Users/Admin/AppData/Local/UnrealEngine/Common/DerivedDataCache: Writable
[2021.09.18-22.25.06:904][  0]LogDerivedDataCache: Shared data cache path not found in *engine.ini, will not use an Shared cache.
[2021.09.18-22.25.06:904][  0]LogDerivedDataCache: Unable to find inner node Shared for hierarchical cache Hierarchy.
[2021.09.18-22.25.06:944][  0]LogSlate: Using FreeType 2.10.0
[2021.09.18-22.25.06:945][  0]LogSlate: SlateFontServices - WITH_FREETYPE: 1, WITH_HARFBUZZ: 1
[2021.09.18-22.25.06:966][  0]LogAssetRegistry: FAssetRegistry took 0.0019 seconds to start up
[2021.09.18-22.25.07:157][  0]LogInit: Selected Device Profile: [Windows]
[2021.09.18-22.25.07:157][  0]LogInit: Active device profile: [000001CC9D9F6300][000001CC9BCAB380 49] Windows
[2021.09.18-22.25.07:157][  0]LogInit: Profiles: [000001CC9D9F6300][000001CC9BCAB380 49] Windows, [000001CC9D9B2D00][000001CC9BCAF4C0 49] WindowsNoEditor, [000001CC9D9F5200][000001CC9BCB3600 49] WindowsServer, [000001CC9D9B3D00][000001CC9BCD7740 49] WindowsClient, [000001CC9D9F4200][000001CC9BCDF880 49] IOS, [000001CC9D9B0B00][000001CC9BCE7A00 49] iPadAir, [000001CC9D9F6F00][000001CC9BCEBB80 49] iPadAir2, [000001CC9D6F2200][000001CC91030180 49] IPadPro, [000001CC9D6F2300][000001CC9102C1C0 49] iPadAir3, [000001CC9D9B1900][000001CC91034340 49] iPadAir4, [000001CC9D6F3A00][000001CC9103C4C0 49] iPadMini2, [000001CC9D9B0300][000001CC91044640 49] iPadMini3, [000001CC9D6F1700][000001CC910487C0 49] iPadMini4, [000001CC9D9B2800][000001CC9DD00940 49] iPadMini5, [000001CC9D701B00][000001CC9DD14C00 49] iPhone6, [000001CC9D701C00][000001CC9DD04C40 49] iPodTouch6, [000001CC9D9F6000][000001CC9DD1CF00 49] iPhone7, [000001CC9D9F5300][000001CC9DD18F40 49] iPodTouch7, [000001CC9D702C00][000001CC9DD210C0 49] iPhone5S, [000001CC9D9F6900][000001CC9DD25240 49] iPhone6Plus, [000001CC9D701F00][000001CC9DD293C0 49] iPhone6S, [000001CC9D9F7200][000001CC9DD45540 49] iPhone6SPlus, [000001CC9D701900][000001CC9BCE3680 49] iPhone7Plus, [000001CC9D9F5000][000001CC9DD497C0 49] iPhoneSE, [000001CC9D703100][000001CC9DD4D900 49] iPhone8, [000001CC9D9F5500][000001CC9DD55A80 49] iPhone8Plus, [000001CC9D702A00][000001CC9DD59C00 49] iPhoneX, [000001CC9D9F4300][000001CC9DD7C0C0 49] iPhoneXS, [000001CC9D702700][000001CC9DD80240 49] iPhoneXSMax, [000001CC9D9F5900][000001CC9DD843C0 49] iPhoneXR, [000001CC9D9B3C00][000001CC9DD88540 49] iPhone11, [000001CC9D700C00][000001CC9DD8C6C0 49] iPhone11Pro, [000001CC9D9B2E00][000001CC9DD90840 49] iPhone11ProMax, [000001CC9D703800][000001CC9DD949C0 49] iPhoneSE2, [000001CC9D9B1A00][000001CC9DD98B40 49] iPhone12Mini, [000001CC9D702500][000001CC9DD9CCC0 49] iPhone12, [000001CC9D9B0D00][000001CC9DDCCE40 49] iPhone12Pro, [000001CC9D703900][000001CC9DDD0FC0 49] iPhone12ProMax, [000001CC9D9B1100][000001CC9DDD5140 49] iPadPro105, [000001CC9D700A00][000001CC9DDD92C0 49] iPadPro129, [000001CC9D9B3600][000001CC9DDDD440 49] iPadPro97, [000001CC9D9F5E00][000001CC9DDE15C0 49] iPadPro2_129, [000001CC9D9B2100][000001CC9DD51700 49] iPad5, [000001CC9D9F7100][000001CC9DDE5840 49] iPad6, [000001CC9D9B2200][000001CC9DDE9980 49] iPad7, [000001CC9D9F5100][000001CC9DDEDAC0 49] iPad8, [000001CC9D9B0800][000001CC9DDF5C40 49] iPadPro11, [000001CC9D9F6B00][000001CC9DDF8100 49] iPadPro2_11, [000001CC9D9B3200][000001CC9DDFC280 49] iPadPro3_129, [000001CC9D9F4D00][000001CC9DE00400 49] iPadPro4_129, [000001CC9D9B1C00][000001CC9DE04580 49] AppleTV, [000001CC9D9F6200][000001CC9DE08700 49] AppleTV4K, [000001CC9D9B2C00][000001CC9DE0C880 49] TVOS, [000001CC9D9F7A00][000001CC9DE10A00 49] Mac, [000001CC9D9B1D00][000001CC9DE14B80 49] MacClient, [000001CC9D9F5D00][000001CC9DE18D00 49] MacNoEditor, [000001CC9D9B2700][000001CC9DE1CE80 49] MacServer, [000001CC9D9F6C00][000001CC9DE21000 49] Linux, [000001CC9D9B0500][000001CC9DE25180 49] LinuxAArch64, [000001CC9D9F6800][000001CC9DE29300 49] LinuxNoEditor, [000001CC9D9B1000][000001CC9DE2D480 49] LinuxAArch64NoEditor, [000001CC9D9F6D00][000001CC9DE31600 49] LinuxClient, [000001CC9D9B1200][000001CC9DDF1740 49] LinuxAArch64Client, [000001CC9D9F7D00][000001CC9DE35880 49] LinuxServer, [000001CC9D9B3000][000001CC9DE399C0 49] LinuxAArch64Server, [000001CC9D9F7800][000001CC9DE3DB00 49] Android, [000001CC9D9B3900][000001CC9DE45C80 49] Android_Low, [000001CC9D9F7600][000001CC9DE48140 49] Android_Mid, [000001CC9D9B0200][000001CC9DE4C2C0 49] Android_High, [000001CC9D9F5600][000001CC9DE50440 49] Android_Default, [000001CC9D9B0E00][000001CC9DE545C0 49] Android_Adreno4xx, [000001CC9D9F5400][000001CC9DE58740 49] Android_Adreno5xx_Low, [000001CC9D9B1F00][000001CC9DE5C8C0 49] Android_Adreno5xx, [000001CC9D9F4C00][000001CC9DE60A40 49] Android_Adreno6xx, [000001CC9D9B0700][000001CC9DE64BC0 49] Android_Adreno6xx_Vulkan, [000001CC9D9F7400][000001CC9DE68D40 49] Android_Mali_T6xx, [000001CC9D9B1300][000001CC9DE6CEC0 49] Android_Mali_T7xx, [000001CC9D9F6700][000001CC9DE71040 49] Android_Mali_T8xx, [000001CC9D9B2300][000001CC9DE751C0 49] Android_Mali_G71, [000001CC9D9F7500][000001CC9DE79340 49] Android_Mali_G72, [000001CC9D6F2B00][000001CC9DE7D4C0 49] Android_Mali_G72_Vulkan, [000001CC9D700900][000001CC9DE81640 49] Android_Mali_G76, [000001CC9D6F0500][000001CC9DE857C0 49] Android_Mali_G76_Vulkan, [000001CC9D701A00][000001CC9DE41900 49] Android_Mali_G77, [000001CC9D6F2800][000001CC9DE89A40 49] Android_Mali_G77_Vulkan, [000001CC9D703B00][000001CC9DE8DB80 49] Android_Vulkan_SM5, [000001CC9D6F0600][000001CC9DE95D00 49] Android_PowerVR_G6xxx, [000001CC9D702900][000001CC9DE981C0 49] Android_PowerVR_GT7xxx, [000001CC9D6F0400][000001CC9DE9C340 49] Android_PowerVR_GE8xxx, [000001CC9D700B00][000001CC9DEA04C0 49] Android_PowerVR_GM9xxx, [000001CC9D6F1400][000001CC9DEA4640 49] Android_PowerVR_GM9xxx_Vulkan, [000001CC9D702800][000001CC9DEA87C0 49] Android_TegraK1, [000001CC9D6F3300][000001CC9DEAC940 49] Android_Unknown_Vulkan, [000001CC9D703200][000001CC9DEB0AC0 49] Lumin, [000001CC9D6F1A00][000001CC9DEB4C40 49] Lumin_Desktop, [000001CC9D701400][000001CC9DEB8DC0 49] HoloLens, 
[2021.09.18-22.25.07:246][  0]LogMeshReduction: Using QuadricMeshReduction for automatic static mesh reduction
[2021.09.18-22.25.07:246][  0]LogMeshReduction: Using SimplygonMeshReduction for automatic skeletal mesh reduction
[2021.09.18-22.25.07:246][  0]LogMeshReduction: Using ProxyLODMeshReduction for automatic mesh merging
[2021.09.18-22.25.07:246][  0]LogMeshReduction: No distributed automatic mesh merging module available
[2021.09.18-22.25.07:246][  0]LogMeshMerging: No distributed automatic mesh merging module available
[2021.09.18-22.25.07:262][  0]LogNetVersion: sbHomework_20_5 1.0.0, NetCL: 14830424, EngineNetVer: 16, GameNetVer: 0 (Checksum: 311366392)
[2021.09.18-22.25.07:609][  0]LogHMD: PokeAHoleMaterial loaded successfully
[2021.09.18-22.25.07:631][  0]LogPackageLocalizationCache: Processed 22 localized package path(s) for 1 prioritized culture(s) in 0.021065 seconds
[2021.09.18-22.25.07:635][  0]LogUObjectArray: 16831 objects as part of root set at end of initial load.
[2021.09.18-22.25.07:635][  0]LogUObjectAllocator: 4209728 out of 0 bytes used by permanent object pool.
[2021.09.18-22.25.07:635][  0]LogUObjectArray: CloseDisregardForGC: 0/0 objects in disregard for GC pool
[2021.09.18-22.25.07:931][  0]LogUdpMessaging: Initializing bridge on interface 0.0.0.0:0 to multicast group 230.0.0.1:6666.
[2021.09.18-22.25.07:936][  0]LogTcpMessaging: Initializing TcpMessaging bridge
[2021.09.18-22.25.08:034][  0]SourceControl: Source control is disabled
[2021.09.18-22.25.08:034][  0]SourceControl: Source control is disabled
[2021.09.18-22.25.08:037][  0]SourceControl: Source control is disabled
[2021.09.18-22.25.08:039][  0]SourceControl: Source control is disabled
[2021.09.18-22.25.08:050][  0]SourceControl: Source control is disabled
[2021.09.18-22.25.08:055][  0]LogUProjectInfo: Found projects:
[2021.09.18-22.25.08:192][  0]LogAndroidPermission: UAndroidPermissionCallbackProxy::GetInstance
[2021.09.18-22.25.08:204][  0]LogAudioCaptureCore: Display: No Audio Capture implementations found. Audio input will be silent.
[2021.09.18-22.25.08:204][  0]LogAudioCaptureCore: Display: No Audio Capture implementations found. Audio input will be silent.
[2021.09.18-22.25.08:244][  0]LogCollectionManager: Loaded 0 collections in 0.000561 seconds
[2021.09.18-22.25.08:260][  0]LogFileCache: Scanning file cache for directory 'D:/Epic Games/Epic Games/UE projects/sbHomework_20_5/Saved/Collections/' took 0.00s
[2021.09.18-22.25.08:260][  0]LogFileCache: Scanning file cache for directory 'D:/Epic Games/Epic Games/UE projects/sbHomework_20_5/Content/Developers/Admin/Collections/' took 0.00s
[2021.09.18-22.25.08:260][  0]LogFileCache: Scanning file cache for directory 'D:/Epic Games/Epic Games/UE projects/sbHomework_20_5/Content/Collections/' took 0.00s
[2021.09.18-22.25.08:260][  0]LogOcInput: OculusInput pre-init called
[2021.09.18-22.25.08:268][  0]LogWindows: Failed to load 'OVRPlugin.dll' (GetLastError=126)
[2021.09.18-22.25.08:268][  0]LogWindows: File 'OVRPlugin.dll' does not exist
[2021.09.18-22.25.08:305][  0]LogEngine: Initializing Engine...
[2021.09.18-22.25.08:348][  0]LogHMD: Failed to initialize OpenVR with code 108
[2021.09.18-22.25.08:349][  0]LogMagicLeap: Warning: VR disabled because ZI is not enabled.  To enable, in the editor, Edit -> Project Settings -> Plugins -> Magic Leap Plugin -> Enable Zero Iteration
[2021.09.18-22.25.08:349][  0]LogStats: UGameplayTagsManager::InitializeManager -  0.000 s
[2021.09.18-22.25.08:436][  0]LogInit: Initializing FReadOnlyCVARCache
[2021.09.18-22.25.08:442][  0]LogAIModule: Creating AISystem for world Untitled
[2021.09.18-22.25.08:451][  0]LogAudio: Display: Initializing Audio Device Manager...
[2021.09.18-22.25.08:455][  0]LogAudio: Display: Audio Device Manager Initialized
[2021.09.18-22.25.08:455][  0]LogAudio: Display: Creating Audio Device:                 Id: 1, Scope: Shared, Realtime: True
[2021.09.18-22.25.08:455][  0]LogAudioMixer: Display: Audio Mixer Platform Settings:
[2021.09.18-22.25.08:455][  0]LogAudioMixer: Display: 	Sample Rate:						  48000
[2021.09.18-22.25.08:455][  0]LogAudioMixer: Display: 	Callback Buffer Frame Size Requested: 1024
[2021.09.18-22.25.08:455][  0]LogAudioMixer: Display: 	Callback Buffer Frame Size To Use:	  1024
[2021.09.18-22.25.08:455][  0]LogAudioMixer: Display: 	Number of buffers to queue:			  2
[2021.09.18-22.25.08:455][  0]LogAudioMixer: Display: 	Max Channels (voices):				  32
[2021.09.18-22.25.08:456][  0]LogAudioMixer: Display: 	Number of Async Source Workers:		  0
[2021.09.18-22.25.08:456][  0]LogAudio: Display: AudioDevice MaxSources: 32
[2021.09.18-22.25.08:456][  0]LogAudio: Display: Using built-in audio occlusion.
[2021.09.18-22.25.08:456][  0]LogAudioMixer: Display: Initializing audio mixer.
[2021.09.18-22.25.08:479][  0]LogAudioMixer: Display: 0: FrontLeft
[2021.09.18-22.25.08:479][  0]LogAudioMixer: Display: 1: FrontRight
[2021.09.18-22.25.08:518][  0]LogAudioMixer: Display: Using Audio Device Наушники (4- Razer Nari Ultimate - Game)
[2021.09.18-22.25.08:524][  0]LogAudioMixer: Display: Initializing Sound Submixes...
[2021.09.18-22.25.08:525][  0]LogAudioMixer: Display: Creating Master Submix 'MasterSubmixDefault'
[2021.09.18-22.25.08:525][  0]LogAudioMixer: Display: Creating Master Submix 'MasterReverbSubmixDefault'
[2021.09.18-22.25.08:526][  0]LogAudioMixer: Display: Creating Master Submix 'MasterEQSubmixDefault'
[2021.09.18-22.25.08:526][  0]LogAudioMixer: FMixerPlatformXAudio2::StartAudioStream() called
[2021.09.18-22.25.08:526][  0]LogAudioMixer: Display: Output buffers initialized: Frames=1024, Channels=2, Samples=2048
[2021.09.18-22.25.08:527][  0]LogAudioMixer: Display: Starting AudioMixerPlatformInterface::RunInternal()
[2021.09.18-22.25.08:527][  0]LogAudioMixer: Display: FMixerPlatformXAudio2::SubmitBuffer() called for the first time
[2021.09.18-22.25.08:527][  0]LogInit: FAudioDevice initialized.
[2021.09.18-22.25.08:527][  0]LogAudio: Display: Audio Device (ID: 1) registered with world 'Untitled'.
[2021.09.18-22.25.08:527][  0]LogNetVersion: Set ProjectVersion to 1.0.0.0. Version Checksum will be recalculated on next use.
[2021.09.18-22.25.08:568][  0]LogDerivedDataCache: Saved boot cache 0.04s 77MB C:/Users/Admin/AppData/Local/UnrealEngine/4.26/DerivedDataCache/Boot.ddc.
[2021.09.18-22.25.08:570][  0]LogInit: Texture streaming: Enabled
[2021.09.18-22.25.08:580][  0]LogAnalytics: Display: [UEEditor.Rocket.Release] APIServer = https://datarouter.ol.epicgames.com/. AppVersion = 4.26.2-15973114+++UE4+Release-4.26
[2021.09.18-22.25.08:583][  0]LogEngineSessionManager: EngineSessionManager initialized
[2021.09.18-22.25.08:583][  0]LogEngineSessionManager: EngineSessionManager sent abnormal shutdown report. Type=Crashed, SessionId={7494D09C-478C-8DC8-6562-7681F12AE37A}
[2021.09.18-22.25.08:583][  0]LogEditorSessionSummary: Verbose: Initializing EditorSessionSummaryWriter for editor session tracking
[2021.09.18-22.25.08:585][  0]LogEditorSessionSummary: EditorSessionSummaryWriter initialized
[2021.09.18-22.25.08:604][  0]LogInit: Transaction tracking system initialized
[2021.09.18-22.25.08:620][  0]BlueprintLog: New page: Editor Load
[2021.09.18-22.25.08:673][  0]LocalizationService: Localization service is disabled
[2021.09.18-22.25.08:690][  0]TimingProfiler: Initialize
[2021.09.18-22.25.08:690][  0]TimingProfiler: OnSessionChanged
[2021.09.18-22.25.08:690][  0]LoadingProfiler: Initialize
[2021.09.18-22.25.08:690][  0]LoadingProfiler: OnSessionChanged
[2021.09.18-22.25.08:690][  0]NetworkingProfiler: Initialize
[2021.09.18-22.25.08:690][  0]NetworkingProfiler: OnSessionChanged
[2021.09.18-22.25.08:690][  0]MemoryProfiler: Initialize
[2021.09.18-22.25.08:690][  0]MemoryProfiler: OnSessionChanged
[2021.09.18-22.25.08:787][  0]LogCook: Display: CookSettings for Memory: MemoryMaxUsedVirtual 0MiB, MemoryMaxUsedPhysical 16384MiB, MemoryMinFreeVirtual 0MiB, MemoryMinFreePhysical 1024MiB
[2021.09.18-22.25.08:787][  0]LogCook: Display: Mobile HDR setting 1
[2021.09.18-22.25.08:816][  0]LogFileCache: Scanning file cache for directory 'D:/Epic Games/Epic Games/UE projects/sbHomework_20_5/Content/' took 0.00s
[2021.09.18-22.25.09:036][  0]LogInit: Display: Engine is initialized. Leaving FEngineLoop::Init()
[2021.09.18-22.25.09:039][  0]SourceControl: Source control is disabled
[2021.09.18-22.25.09:039][  0]LogUnrealEdMisc: Loading editor; pre map load, took 4.416
[2021.09.18-22.25.09:039][  0]Cmd: MAP LOAD FILE="../../../../../Epic Games/Epic Games/UE projects/sbHomework_20_5/Content/Main.umap" TEMPLATE=0 SHOWPROGRESS=1 FEATURELEVEL=3
[2021.09.18-22.25.09:039][  0]LightingResults: New page: Lighting Build
[2021.09.18-22.25.09:040][  0]LogWorld: UWorld::CleanupWorld for Untitled, bSessionEnded=true, bCleanupResources=true
[2021.09.18-22.25.09:040][  0]LogSlate: InvalidateAllWidgets triggered.  All widgets were invalidated
[2021.09.18-22.25.09:040][  0]MapCheck: New page: Map Check
[2021.09.18-22.25.09:040][  0]LightingResults: New page: Lighting Build
[2021.09.18-22.25.09:046][  0]LogUObjectHash: Compacting FUObjectHashTables data took   0.57ms
[2021.09.18-22.25.09:098][  0]LogAudio: Display: Audio Device (ID: 1) registered with world 'Main'.
[2021.09.18-22.25.09:099][  0]LogAIModule: Creating AISystem for world Main
[2021.09.18-22.25.09:103][  0]LogEditorServer: Finished looking for orphan Actors (0.000 secs)
[2021.09.18-22.25.09:112][  0]LogUObjectHash: Compacting FUObjectHashTables data took   1.10ms
[2021.09.18-22.25.09:112][  0]Cmd: MAP CHECKDEP NOCLEARLOG
[2021.09.18-22.25.09:112][  0]MapCheck: Map check complete: 0 Error(s), 0 Warning(s), took 0,125ms to complete.
[2021.09.18-22.25.09:112][  0]LogFileHelpers: Loading map 'Main' took 0.075
[2021.09.18-22.25.09:115][  0]LogUnrealEdMisc: Total Editor Startup Time, took 4.493
[2021.09.18-22.25.09:214][  0]LogSlate: Updating window title bar state: overlay mode, drag disabled, window buttons hidden, title bar hidden
[2021.09.18-22.25.09:219][  0]LogSlate: Updating window title bar state: overlay mode, drag disabled, window buttons hidden, title bar hidden
[2021.09.18-22.25.09:224][  0]LogSlate: Updating window title bar state: overlay mode, drag disabled, window buttons hidden, title bar hidden
[2021.09.18-22.25.09:228][  0]LogSlate: Updating window title bar state: overlay mode, drag disabled, window buttons hidden, title bar hidden
[2021.09.18-22.25.09:240][  0]LogNativeClassHierarchy: Verbose: Native class hierarchy populated in 0.0076 seconds. Added 3609 classes and 861 folders.
[2021.09.18-22.25.09:243][  0]LogNativeClassHierarchy: Verbose: Native class hierarchy updated for 'WidgetCarousel' in 0.0002 seconds. Added 0 classes and 0 folders.
[2021.09.18-22.25.09:244][  0]LogPakFile: PakFile PrimaryIndexSize=187
[2021.09.18-22.25.09:244][  0]LogPakFile: PakFile PathHashIndexSize=101
[2021.09.18-22.25.09:245][  0]LogPakFile: PakFile FullDirectoryIndexSize=148
[2021.09.18-22.25.09:245][  0]LogPakFile: OnPakFileMounted2Time == 0.000006
[2021.09.18-22.25.09:245][  0]LogPakFile: PakFile PrimaryIndexSize=189
[2021.09.18-22.25.09:245][  0]LogPakFile: PakFile PathHashIndexSize=101
[2021.09.18-22.25.09:245][  0]LogPakFile: PakFile FullDirectoryIndexSize=152
[2021.09.18-22.25.09:245][  0]LogPakFile: OnPakFileMounted2Time == 0.000007
[2021.09.18-22.25.09:246][  0]LogPakFile: PakFile PrimaryIndexSize=191
[2021.09.18-22.25.09:246][  0]LogPakFile: PakFile PathHashIndexSize=101
[2021.09.18-22.25.09:246][  0]LogPakFile: PakFile FullDirectoryIndexSize=160
[2021.09.18-22.25.09:246][  0]LogPakFile: OnPakFileMounted2Time == 0.000008
[2021.09.18-22.25.09:246][  0]LogPakFile: PakFile PrimaryIndexSize=185
[2021.09.18-22.25.09:246][  0]LogPakFile: PakFile PathHashIndexSize=101
[2021.09.18-22.25.09:246][  0]LogPakFile: PakFile FullDirectoryIndexSize=148
[2021.09.18-22.25.09:246][  0]LogPakFile: OnPakFileMounted2Time == 0.000009
[2021.09.18-22.25.09:247][  0]LogPakFile: PakFile PrimaryIndexSize=190
[2021.09.18-22.25.09:247][  0]LogPakFile: PakFile PathHashIndexSize=101
[2021.09.18-22.25.09:247][  0]LogPakFile: PakFile FullDirectoryIndexSize=154
[2021.09.18-22.25.09:247][  0]LogPakFile: OnPakFileMounted2Time == 0.000010
[2021.09.18-22.25.09:247][  0]LogPakFile: PakFile PrimaryIndexSize=192
[2021.09.18-22.25.09:247][  0]LogPakFile: PakFile PathHashIndexSize=101
[2021.09.18-22.25.09:247][  0]LogPakFile: PakFile FullDirectoryIndexSize=158
[2021.09.18-22.25.09:247][  0]LogPakFile: OnPakFileMounted2Time == 0.000011
[2021.09.18-22.25.09:248][  0]LogPakFile: PakFile PrimaryIndexSize=182
[2021.09.18-22.25.09:248][  0]LogPakFile: PakFile PathHashIndexSize=101
[2021.09.18-22.25.09:248][  0]LogPakFile: PakFile FullDirectoryIndexSize=138
[2021.09.18-22.25.09:248][  0]LogPakFile: OnPakFileMounted2Time == 0.000012
[2021.09.18-22.25.09:248][  0]LogPakFile: PakFile PrimaryIndexSize=184
[2021.09.18-22.25.09:248][  0]LogPakFile: PakFile PathHashIndexSize=101
[2021.09.18-22.25.09:248][  0]LogPakFile: PakFile FullDirectoryIndexSize=142
[2021.09.18-22.25.09:248][  0]LogPakFile: OnPakFileMounted2Time == 0.000013
[2021.09.18-22.25.09:249][  0]LogPakFile: PakFile PrimaryIndexSize=188
[2021.09.18-22.25.09:249][  0]LogPakFile: PakFile PathHashIndexSize=101
[2021.09.18-22.25.09:249][  0]LogPakFile: PakFile FullDirectoryIndexSize=150
[2021.09.18-22.25.09:249][  0]LogPakFile: OnPakFileMounted2Time == 0.000014
[2021.09.18-22.25.09:249][  0]LogPakFile: PakFile PrimaryIndexSize=182
[2021.09.18-22.25.09:249][  0]LogPakFile: PakFile PathHashIndexSize=101
[2021.09.18-22.25.09:249][  0]LogPakFile: PakFile FullDirectoryIndexSize=138
[2021.09.18-22.25.09:249][  0]LogPakFile: OnPakFileMounted2Time == 0.000015
[2021.09.18-22.25.09:250][  0]LogPakFile: PakFile PrimaryIndexSize=184
[2021.09.18-22.25.09:250][  0]LogPakFile: PakFile PathHashIndexSize=101
[2021.09.18-22.25.09:250][  0]LogPakFile: PakFile FullDirectoryIndexSize=142
[2021.09.18-22.25.09:250][  0]LogPakFile: OnPakFileMounted2Time == 0.000016
[2021.09.18-22.25.09:250][  0]LogPakFile: PakFile PrimaryIndexSize=183
[2021.09.18-22.25.09:250][  0]LogPakFile: PakFile PathHashIndexSize=101
[2021.09.18-22.25.09:250][  0]LogPakFile: PakFile FullDirectoryIndexSize=140
[2021.09.18-22.25.09:250][  0]LogPakFile: OnPakFileMounted2Time == 0.000017
[2021.09.18-22.25.09:251][  0]LogPakFile: PakFile PrimaryIndexSize=185
[2021.09.18-22.25.09:251][  0]LogPakFile: PakFile PathHashIndexSize=101
[2021.09.18-22.25.09:251][  0]LogPakFile: PakFile FullDirectoryIndexSize=144
[2021.09.18-22.25.09:251][  0]LogPakFile: OnPakFileMounted2Time == 0.000018
[2021.09.18-22.25.09:251][  0]LogPakFile: PakFile PrimaryIndexSize=188
[2021.09.18-22.25.09:251][  0]LogPakFile: PakFile PathHashIndexSize=101
[2021.09.18-22.25.09:251][  0]LogPakFile: PakFile FullDirectoryIndexSize=150
[2021.09.18-22.25.09:251][  0]LogPakFile: OnPakFileMounted2Time == 0.000019
[2021.09.18-22.25.09:252][  0]LogPakFile: PakFile PrimaryIndexSize=190
[2021.09.18-22.25.09:252][  0]LogPakFile: PakFile PathHashIndexSize=101
[2021.09.18-22.25.09:252][  0]LogPakFile: PakFile FullDirectoryIndexSize=154
[2021.09.18-22.25.09:252][  0]LogPakFile: OnPakFileMounted2Time == 0.000020
[2021.09.18-22.25.09:252][  0]LogPakFile: PakFile PrimaryIndexSize=187
[2021.09.18-22.25.09:252][  0]LogPakFile: PakFile PathHashIndexSize=101
[2021.09.18-22.25.09:252][  0]LogPakFile: PakFile FullDirectoryIndexSize=148
[2021.09.18-22.25.09:252][  0]LogPakFile: OnPakFileMounted2Time == 0.000020
[2021.09.18-22.25.09:253][  0]LogPakFile: PakFile PrimaryIndexSize=189
[2021.09.18-22.25.09:253][  0]LogPakFile: PakFile PathHashIndexSize=101
[2021.09.18-22.25.09:253][  0]LogPakFile: PakFile FullDirectoryIndexSize=152
[2021.09.18-22.25.09:253][  0]LogPakFile: OnPakFileMounted2Time == 0.000022
[2021.09.18-22.25.09:253][  0]LogPakFile: PakFile PrimaryIndexSize=183
[2021.09.18-22.25.09:253][  0]LogPakFile: PakFile PathHashIndexSize=101
[2021.09.18-22.25.09:253][  0]LogPakFile: PakFile FullDirectoryIndexSize=140
[2021.09.18-22.25.09:253][  0]LogPakFile: OnPakFileMounted2Time == 0.000023
[2021.09.18-22.25.09:254][  0]LogPakFile: PakFile PrimaryIndexSize=185
[2021.09.18-22.25.09:254][  0]LogPakFile: PakFile PathHashIndexSize=101
[2021.09.18-22.25.09:254][  0]LogPakFile: PakFile FullDirectoryIndexSize=144
[2021.09.18-22.25.09:254][  0]LogPakFile: OnPakFileMounted2Time == 0.000024
[2021.09.18-22.25.09:254][  0]LogPakFile: PakFile PrimaryIndexSize=185
[2021.09.18-22.25.09:254][  0]LogPakFile: PakFile PathHashIndexSize=101
[2021.09.18-22.25.09:254][  0]LogPakFile: PakFile FullDirectoryIndexSize=144
[2021.09.18-22.25.09:254][  0]LogPakFile: OnPakFileMounted2Time == 0.000025
[2021.09.18-22.25.09:255][  0]LogPakFile: PakFile PrimaryIndexSize=187
[2021.09.18-22.25.09:255][  0]LogPakFile: PakFile PathHashIndexSize=101
[2021.09.18-22.25.09:255][  0]LogPakFile: PakFile FullDirectoryIndexSize=148
[2021.09.18-22.25.09:255][  0]LogPakFile: OnPakFileMounted2Time == 0.000026
[2021.09.18-22.25.09:255][  0]LogPakFile: PakFile PrimaryIndexSize=183
[2021.09.18-22.25.09:256][  0]LogPakFile: PakFile PathHashIndexSize=101
[2021.09.18-22.25.09:256][  0]LogPakFile: PakFile FullDirectoryIndexSize=140
[2021.09.18-22.25.09:256][  0]LogPakFile: OnPakFileMounted2Time == 0.000027
[2021.09.18-22.25.09:256][  0]LogPakFile: PakFile PrimaryIndexSize=186
[2021.09.18-22.25.09:256][  0]LogPakFile: PakFile PathHashIndexSize=101
[2021.09.18-22.25.09:256][  0]LogPakFile: PakFile FullDirectoryIndexSize=146
[2021.09.18-22.25.09:256][  0]LogPakFile: OnPakFileMounted2Time == 0.000029
[2021.09.18-22.25.09:257][  0]LogPakFile: PakFile PrimaryIndexSize=188
[2021.09.18-22.25.09:257][  0]LogPakFile: PakFile PathHashIndexSize=101
[2021.09.18-22.25.09:257][  0]LogPakFile: PakFile FullDirectoryIndexSize=150
[2021.09.18-22.25.09:257][  0]LogPakFile: OnPakFileMounted2Time == 0.000030
[2021.09.18-22.25.09:257][  0]LogPakFile: PakFile PrimaryIndexSize=185
[2021.09.18-22.25.09:257][  0]LogPakFile: PakFile PathHashIndexSize=101
[2021.09.18-22.25.09:257][  0]LogPakFile: PakFile FullDirectoryIndexSize=144
[2021.09.18-22.25.09:257][  0]LogPakFile: OnPakFileMounted2Time == 0.000031
[2021.09.18-22.25.09:258][  0]LogPakFile: PakFile PrimaryIndexSize=192
[2021.09.18-22.25.09:258][  0]LogPakFile: PakFile PathHashIndexSize=101
[2021.09.18-22.25.09:258][  0]LogPakFile: PakFile FullDirectoryIndexSize=158
[2021.09.18-22.25.09:258][  0]LogPakFile: OnPakFileMounted2Time == 0.000032
[2021.09.18-22.25.09:291][  0]LogNativeClassHierarchy: Verbose: Native class hierarchy updated for 'AddContentDialog' in 0.0002 seconds. Added 0 classes and 0 folders.
[2021.09.18-22.25.09:295][  0]LogNativeClassHierarchy: Verbose: Native class hierarchy updated for 'SceneOutliner' in 0.0002 seconds. Added 2 classes and 0 folders.
[2021.09.18-22.25.09:357][  0]LogSlate: Took 0.000114 seconds to synchronously load lazily loaded font '../../../Engine/Content/Slate/Fonts/Roboto-Regular.ttf' (155K)
[2021.09.18-22.25.09:358][  0]LogSlate: Took 0.000101 seconds to synchronously load lazily loaded font '../../../Engine/Content/Slate/Fonts/Roboto-Bold.ttf' (160K)
[2021.09.18-22.25.09:362][  0]LogSlate: Took 0.000162 seconds to synchronously load lazily loaded font '../../../Engine/Content/Editor/Slate/Fonts/FontAwesome.ttf' (139K)
[2021.09.18-22.25.09:443][  0]LogRenderer: Reallocating scene render targets to support 1732x920 Format 10 NumSamples 1 (Frame:1).
[2021.09.18-22.25.09:617][  0]LogNativeClassHierarchy: Verbose: Native class hierarchy updated for 'HierarchicalLODOutliner' in 0.0002 seconds. Added 0 classes and 0 folders.
[2021.09.18-22.25.09:617][  0]LogLoad: (Engine Initialization) Total time: 4.99 seconds
[2021.09.18-22.25.09:617][  0]LogLoad: (Engine Initialization) Total Blueprint compile time: 0.00 seconds
[2021.09.18-22.25.09:617][  0]LogInit: First time updating LLM stats...
[2021.09.18-22.25.09:627][  0]LogWindowsTextInputMethodSystem: Display: IME system deactivated.
[2021.09.18-22.25.09:658][  0]LogAssetRegistry: Asset discovery search completed in 2.6941 seconds
[2021.09.18-22.25.09:660][  0]LogCollectionManager: Fixed up redirectors for 0 collections in 0.000003 seconds (updated 0 objects)
[2021.09.18-22.25.09:704][  0]LogContentStreaming: Texture pool size now 1000 MB
[2021.09.18-22.25.10:626][ 97]LogSlate: Took 0.000130 seconds to synchronously load lazily loaded font '../../../Engine/Content/Slate/Fonts/Roboto-Light.ttf' (167K)
[2021.09.18-22.25.10:636][ 97]Cmd: OBJ SAVEPACKAGE PACKAGE="/Game/Main" FILE="../../../../../Epic Games/Epic Games/UE projects/sbHomework_20_5/Content/Main.umap" SILENT=true AUTOSAVING=false KEEPDIRTY=false
[2021.09.18-22.25.10:644][ 97]LogUObjectHash: Compacting FUObjectHashTables data took   0.50ms
[2021.09.18-22.25.10:652][ 97]LogSavePackage: Moving '../../../../../Epic Games/Epic Games/UE projects/sbHomework_20_5/Saved/Main6F7D995F49F5B5C38267CF93F2F9C146.tmp' to '../../../../../Epic Games/Epic Games/UE projects/sbHomework_20_5/Content/Main.umap'
[2021.09.18-22.25.10:657][ 97]Cmd: OBJ SAVEPACKAGE PACKAGE="/Game/Main_BuiltData" FILE="../../../../../Epic Games/Epic Games/UE projects/sbHomework_20_5/Content/Main_BuiltData.uasset" SILENT=true
[2021.09.18-22.25.10:671][ 97]LogSavePackage: Moving '../../../../../Epic Games/Epic Games/UE projects/sbHomework_20_5/Saved/Main_BuiltData4AE3AE9F4E0BE86E11F1E18958F09F74.tmp' to '../../../../../Epic Games/Epic Games/UE projects/sbHomework_20_5/Content/Main_BuiltData.uasset'
[2021.09.18-22.25.10:680][ 97]AssetCheck: New page: Asset Save: multiple assets
[2021.09.18-22.25.10:680][ 97]LogContentValidation: Display: Validating MapBuildDataRegistry /Game/Main_BuiltData.Main_BuiltData
[2021.09.18-22.25.10:680][ 97]LogContentValidation: Display: Validating World /Game/Main.Main
[2021.09.18-22.25.16:933][635]LogAssetEditorSubsystem: Opening Asset editor for Blueprint /Game/BP_FoodField.BP_FoodField
[2021.09.18-22.25.17:079][635]LogNativeClassHierarchy: Verbose: Native class hierarchy updated for 'BlueprintGraph' in 0.0004 seconds. Added 126 classes and 0 folders.
[2021.09.18-22.25.17:805][635]LogSlate: Took 0.000140 seconds to synchronously load lazily loaded font '../../../Engine/Content/Slate/Fonts/Roboto-BoldCondensed.ttf' (158K)
[2021.09.18-22.25.18:678][692]LogSlate: Took 0.000149 seconds to synchronously load lazily loaded font '../../../Engine/Content/Slate/Fonts/Roboto-Italic.ttf' (157K)
[2021.09.18-22.25.27:109][187]BlueprintLog: New page: Compile BP_FoodField
[2021.09.18-22.25.27:139][187]LogUObjectHash: Compacting FUObjectHashTables data took   1.80ms
[2021.09.18-22.25.27:159][187]LogSlate: Took 0.000140 seconds to synchronously load lazily loaded font '../../../Engine/Content/Slate/Fonts/DroidSansMono.ttf' (77K)
[2021.09.18-22.25.27:736][217]Cmd: OBJ SAVEPACKAGE PACKAGE="/Game/BP_FoodField" FILE="../../../../../Epic Games/Epic Games/UE projects/sbHomework_20_5/Content/BP_FoodField.uasset" SILENT=true
[2021.09.18-22.25.27:742][217]LogSavePackage: Moving '../../../../../Epic Games/Epic Games/UE projects/sbHomework_20_5/Saved/BP_FoodField860A3FB64479C93D8D45EB9C91F5D6E8.tmp' to '../../../../../Epic Games/Epic Games/UE projects/sbHomework_20_5/Content/BP_FoodField.uasset'
[2021.09.18-22.25.27:761][217]AssetCheck: New page: Asset Save: BP_FoodField
[2021.09.18-22.25.27:761][217]LogContentValidation: Display: Validating Blueprint /Game/BP_FoodField.BP_FoodField
[2021.09.18-22.25.28:619][268]LogRenderer: Reallocating scene render targets to support 1732x1000 Format 10 NumSamples 1 (Frame:1).
[2021.09.18-22.25.34:641][627]LogSlate: Window 'BP_FoodField' being destroyed
[2021.09.18-22.25.34:658][627]LogSlate: Window 'BP_FoodField' being destroyed
[2021.09.18-22.25.34:660][627]LogWorld: UWorld::CleanupWorld for World_4, bSessionEnded=true, bCleanupResources=true
[2021.09.18-22.25.34:660][627]LogSlate: InvalidateAllWidgets triggered.  All widgets were invalidated
[2021.09.18-22.25.37:557][886]LogAssetEditorSubsystem: Opening Asset editor for Blueprint /Game/BP_Food.BP_Food
[2021.09.18-22.25.53:195][774]BlueprintLog: New page: Compile BP_Food
[2021.09.18-22.25.53:226][774]LogUObjectHash: Compacting FUObjectHashTables data took   1.73ms
[2021.09.18-22.25.53:928][810]Cmd: OBJ SAVEPACKAGE PACKAGE="/Game/BP_Food" FILE="../../../../../Epic Games/Epic Games/UE projects/sbHomework_20_5/Content/BP_Food.uasset" SILENT=true
[2021.09.18-22.25.53:931][810]LogSavePackage: Moving '../../../../../Epic Games/Epic Games/UE projects/sbHomework_20_5/Saved/BP_Food794523694D42AD3A49FE78A2EB3F5218.tmp' to '../../../../../Epic Games/Epic Games/UE projects/sbHomework_20_5/Content/BP_Food.uasset'
[2021.09.18-22.25.53:950][810]AssetCheck: New page: Asset Save: BP_Food
[2021.09.18-22.25.53:950][810]LogContentValidation: Display: Validating Blueprint /Game/BP_Food.BP_Food
[2021.09.18-22.25.54:940][879]LogSlate: Window 'BP_Food' being destroyed
[2021.09.18-22.25.54:964][879]LogSlate: Window 'BP_Food' being destroyed
[2021.09.18-22.25.54:968][879]LogWorld: UWorld::CleanupWorld for World_5, bSessionEnded=true, bCleanupResources=true
[2021.09.18-22.25.54:968][879]LogSlate: InvalidateAllWidgets triggered.  All widgets were invalidated
[2021.09.18-22.25.56:361][ 20]Candidate modules for hot reload:
[2021.09.18-22.25.56:361][ 20]  sbHomework_20_5
[2021.09.18-22.25.56:361][ 20]Launching UnrealBuildTool... [D:/Games/UE_4.26/Engine/Binaries/DotNET/UnrealBuildTool.exe  -ModuleWithSuffix=sbHomework_20_5,5501 sbHomework_20_5Editor Win64 Development -Project="D:/Epic Games/Epic Games/UE projects/sbHomework_20_5/sbHomework_20_5.uproject" "D:/Epic Games/Epic Games/UE projects/sbHomework_20_5/sbHomework_20_5.uproject"  -IgnoreJunk]
[2021.09.18-22.25.56:369][ 20]Warning: Starting HotReload took  0.0s.
[2021.09.18-22.25.57:840][ 93]CompilerResultsLog: New page: Compilation - 19 сент. 2021 г., 04:25:57
[2021.09.18-22.25.57:841][ 93]CompilerResultsLog: Using 'git status' to determine working set for adaptive non-unity build (D:\Epic Games\Epic Games\UE projects\sbHomework_20_5).
[2021.09.18-22.25.57:841][ 93]CompilerResultsLog: Building sbHomework_20_5Editor...
[2021.09.18-22.25.57:841][ 93]CompilerResultsLog: Using Visual Studio 2019 14.28.29913 toolchain (C:\Program Files (x86)\Microsoft Visual Studio\2019\Community\VC\Tools\MSVC\14.28.29910) and Windows 10.0.19041.0 SDK (C:\Program Files (x86)\Windows Kits\10).
[2021.09.18-22.25.57:841][ 93]CompilerResultsLog: Building 3 actions with 12 processes...
[2021.09.18-22.25.57:841][ 93]CompilerResultsLog:   [1/3] UE4Editor-sbHomework_20_5-5501.lib
[2021.09.18-22.25.57:841][ 93]CompilerResultsLog:      Creating library D:\Epic Games\Epic Games\UE projects\sbHomework_20_5\Intermediate\Build\Win64\UE4Editor\Development\sbHomework_20_5\UE4Editor-sbHomework_20_5-5501.lib and object D:\Epic Games\Epic Games\UE projects\sbHomework_20_5\Intermediate\Build\Win64\UE4Editor\Development\sbHomework_20_5\UE4Editor-sbHomework_20_5-5501.exp
[2021.09.18-22.25.57:841][ 93]CompilerResultsLog:   [2/3] UE4Editor-sbHomework_20_5-5501.dll
[2021.09.18-22.25.57:841][ 93]CompilerResultsLog:      Creating library D:\Epic Games\Epic Games\UE projects\sbHomework_20_5\Intermediate\Build\Win64\UE4Editor\Development\sbHomework_20_5\UE4Editor-sbHomework_20_5-5501.suppressed.lib and object D:\Epic Games\Epic Games\UE projects\sbHomework_20_5\Intermediate\Build\Win64\UE4Editor\Development\sbHomework_20_5\UE4Editor-sbHomework_20_5-5501.suppressed.exp
[2021.09.18-22.25.57:842][ 93]CompilerResultsLog:   [3/3] sbHomework_20_5Editor.target
[2021.09.18-22.25.57:842][ 93]CompilerResultsLog: Total time in Parallel executor: 0,82 seconds
[2021.09.18-22.25.57:842][ 93]CompilerResultsLog: Total execution time: 1,38 seconds
[2021.09.18-22.25.57:842][ 93]LogMainFrame: MainFrame: Module compiling took 1.504 seconds
[2021.09.18-22.25.57:873][ 93]LogClass: EMovingType HotReload.
[2021.09.18-22.25.57:877][ 93]LogNativeClassHierarchy: Verbose: Native class hierarchy updated for 'sbHomework_20_5' in 0.0002 seconds. Added 8 classes and 2 folders.
[2021.09.18-22.25.57:880][ 93]Display: HotReload successful (5 functions remapped  0 scriptstructs remapped)
[2021.09.18-22.25.57:956][ 93]LogNativeClassHierarchy: Verbose: Native class hierarchy populated in 0.0079 seconds. Added 3609 classes and 861 folders.
[2021.09.18-22.25.57:956][ 93]Display: HotReload took  1.6s.
[2021.09.18-22.25.58:947][130]LogTemp: Repeating last play command: Selected Viewport
[2021.09.18-22.25.58:951][130]LogPlayLevel: PlayLevel: No blueprints needed recompiling
[2021.09.18-22.25.58:951][130]PIE: New page: PIE session: Main (19 сент. 2021 г., 04:25:58)
[2021.09.18-22.25.58:952][130]LogOnline: OSS: Creating online subsystem instance for: NULL
[2021.09.18-22.25.58:953][130]LogOnline: OSS: TryLoadSubsystemAndSetDefault: Loaded subsystem for module [NULL]
[2021.09.18-22.25.58:953][130]LogPlayLevel: Creating play world package: /Game/UEDPIE_0_Main
[2021.09.18-22.25.58:955][130]LogPlayLevel: PIE: StaticDuplicateObject took: (0.001746s)
[2021.09.18-22.25.58:957][130]LogAIModule: Creating AISystem for world Main
[2021.09.18-22.25.58:957][130]LogPlayLevel: PIE: World Init took: (0.002458s)
[2021.09.18-22.25.58:957][130]LogPlayLevel: PIE: Created PIE world by copying editor world from /Game/Main.Main to /Game/UEDPIE_0_Main.Main (0.004426s)
[2021.09.18-22.25.59:006][130]LogUObjectHash: Compacting FUObjectHashTables data took   2.32ms
[2021.09.18-22.25.59:006][130]LogAudio: Display: Creating Audio Device:                 Id: 2, Scope: Unique, Realtime: True
[2021.09.18-22.25.59:007][130]LogAudioMixer: Display: Audio Mixer Platform Settings:
[2021.09.18-22.25.59:007][130]LogAudioMixer: Display: 	Sample Rate:						  48000
[2021.09.18-22.25.59:007][130]LogAudioMixer: Display: 	Callback Buffer Frame Size Requested: 1024
[2021.09.18-22.25.59:007][130]LogAudioMixer: Display: 	Callback Buffer Frame Size To Use:	  1024
[2021.09.18-22.25.59:007][130]LogAudioMixer: Display: 	Number of buffers to queue:			  2
[2021.09.18-22.25.59:007][130]LogAudioMixer: Display: 	Max Channels (voices):				  32
[2021.09.18-22.25.59:007][130]LogAudioMixer: Display: 	Number of Async Source Workers:		  0
[2021.09.18-22.25.59:007][130]LogAudio: Display: AudioDevice MaxSources: 32
[2021.09.18-22.25.59:007][130]LogAudio: Display: Using built-in audio occlusion.
[2021.09.18-22.25.59:007][130]LogAudioMixer: Display: Initializing audio mixer.
[2021.09.18-22.25.59:018][130]LogAudioMixer: Display: 0: FrontLeft
[2021.09.18-22.25.59:018][130]LogAudioMixer: Display: 1: FrontRight
[2021.09.18-22.25.59:044][130]LogAudioMixer: Display: Using Audio Device Наушники (4- Razer Nari Ultimate - Game)
[2021.09.18-22.25.59:044][130]LogAudioMixer: Display: Initializing Sound Submixes...
[2021.09.18-22.25.59:044][130]LogAudioMixer: Display: Creating Master Submix 'MasterSubmixDefault'
[2021.09.18-22.25.59:044][130]LogAudioMixer: Display: Creating Master Submix 'MasterReverbSubmixDefault'
[2021.09.18-22.25.59:044][130]LogAudioMixer: Display: Creating Master Submix 'MasterEQSubmixDefault'
[2021.09.18-22.25.59:044][130]LogAudioMixer: FMixerPlatformXAudio2::StartAudioStream() called
[2021.09.18-22.25.59:044][130]LogAudioMixer: Display: Output buffers initialized: Frames=1024, Channels=2, Samples=2048
[2021.09.18-22.25.59:057][130]LogAudioMixer: Display: Starting AudioMixerPlatformInterface::RunInternal()
[2021.09.18-22.25.59:057][130]LogAudioMixer: Display: FMixerPlatformXAudio2::SubmitBuffer() called for the first time
[2021.09.18-22.25.59:057][130]LogInit: FAudioDevice initialized.
[2021.09.18-22.25.59:057][130]LogAudio: Display: Audio Device (ID: 2) registered with world 'Main'.
[2021.09.18-22.25.59:077][130]LogLoad: Game class is 'BP_GameModeBase_C'
[2021.09.18-22.25.59:079][130]LogWorld: Bringing World /Game/UEDPIE_0_Main.Main up for play (max tick rate 0) at 2021.09.19-01.25.59
[2021.09.18-22.25.59:079][130]LogWorld: Bringing up level for play took: 0.000693
[2021.09.18-22.25.59:079][130]LogOnline: OSS: Creating online subsystem instance for: :Context_8
[2021.09.18-22.25.59:099][130]LogNativeClassHierarchy: Verbose: Native class hierarchy updated for 'MovieSceneCapture' in 0.0003 seconds. Added 20 classes and 0 folders.
[2021.09.18-22.25.59:100][130]PIE: Server logged in
[2021.09.18-22.25.59:101][130]PIE: Play in editor total start time 0,152 seconds.
